quartus/simulation/qsim/jpd_s8bit.msim.vcd
$comment
	File created using the following command:
		vcd file jpd_s8bit.msim.vcd -direction
$end
$date
	Sat Apr 01 16:44:19 2023
$end
$version
	ModelSim Version 10.1d
$end
$timescale
	1ps
$end
$scope module jpd_s8bit_vlg_vec_tst $end
$var reg 8 ! a [7:0] $end
$var reg 8 " b [7:0] $end
$var wire 1 # co $end
$var wire 1 $ s [7] $end
$var wire 1 % s [6] $end
$var wire 1 & s [5] $end
$var wire 1 ' s [4] $end
$var wire 1 ( s [3] $end
$var wire 1 ) s [2] $end
$var wire 1 * s [1] $end
$var wire 1 + s [0] $end
$var wire 1 , sampler $end
$scope module i1 $end
$var wire 1 - gnd $end
$var wire 1 . vcc $end
$var wire 1 / unknown $end
$var tri1 1 0 devclrn $end
$var tri1 1 1 devpor $end
$var tri1 1 2 devoe $end
$var wire 1 3 co~output_o $end
$var wire 1 4 s[7]~output_o $end
$var wire 1 5 s[6]~output_o $end
$var wire 1 6 s[5]~output_o $end
$var wire 1 7 s[4]~output_o $end
$var wire 1 8 s[3]~output_o $end
$var wire 1 9 s[2]~output_o $end
$var wire 1 : s[1]~output_o $end
$var wire 1 ; s[0]~output_o $end
$var wire 1 < a[7]~input_o $end
$var wire 1 = a[2]~input_o $end
$var wire 1 > b[2]~input_o $end
$var wire 1 ? a[1]~input_o $end
$var wire 1 @ b[0]~input_o $end
$var wire 1 A a[0]~input_o $end
$var wire 1 B b[1]~input_o $end
$var wire 1 C inst1|inst2~0_combout $end
$var wire 1 D inst2|inst2~1_combout $end
$var wire 1 E b[3]~input_o $end
$var wire 1 F inst2|inst2~0_combout $end
$var wire 1 G a[3]~input_o $end
$var wire 1 H inst3|inst2~0_combout $end
$var wire 1 I b[4]~input_o $end
$var wire 1 J a[4]~input_o $end
$var wire 1 K inst4|inst2~1_combout $end
$var wire 1 L a[5]~input_o $end
$var wire 1 M b[5]~input_o $end
$var wire 1 N inst4|inst2~0_combout $end
$var wire 1 O inst5|inst2~0_combout $end
$var wire 1 P b[6]~input_o $end
$var wire 1 Q a[6]~input_o $end
$var wire 1 R inst6|inst2~1_combout $end
$var wire 1 S inst6|inst2~0_combout $end
$var wire 1 T b[7]~input_o $end
$var wire 1 U inst7|inst2~0_combout $end
$var wire 1 V inst7|inst1|inst~combout $end
$var wire 1 W inst6|inst1|inst~0_combout $end
$var wire 1 X inst5|inst1|inst~combout $end
$var wire 1 Y inst4|inst1|inst~0_combout $end
$var wire 1 Z inst3|inst1|inst~combout $end
$var wire 1 [ inst2|inst1|inst~0_combout $end
$var wire 1 \ inst1|inst1|inst~0_combout $end
$var wire 1 ] inst|inst~combout $end
$upscope $end
$upscope $end
$enddefinitions $end
#0
$dumpvars
b0 !
b0 "
0#
0+
0*
0)
0(
0'
0&
0%
0$
x,
0-
1.
x/
10
11
12
03
04
05
06
07
08
09
0:
0;
0<
0=
0>
0?
0@
0A
0B
0C
0D
0E
0F
0G
0H
0I
0J
0K
0L
0M
0N
0O
0P
0Q
0R
0S
0T
0U
0V
0W
0X
0Y
0Z
0[
0\
0]
$end
#10000
b1000 !
b1100 !
1=
1G
0,
1[
1Z
19
18
1)
1(
#20000
b11100 !
b1000 "
b1100 "
b11000 !
1>
1E
0=
1J
1,
1H
0Z
1Y
1N
08
17
0(
1'
0Y
07
0'
1X
16
1&
#30000
b111000 !
b110000 !
b100000 !
b100100 !
1=
0G
0J
1L
0,
1D
0H
0N
1O
0[
1Z
1Y
0X
1H
0O
09
18
17
06
0)
1(
1'
0&
0Z
0Y
1X
1W
08
07
16
15
0(
0'
1&
1%
1Y
0W
17
05
1'
0%
#40000
b11100 "
b11000 "
b110100 !
b110000 !
0=
1J
0>
1I
1,
0D
1N
1K
0H
1O
1Z
0X
0N
18
06
1(
0&
0Y
1W
07
15
0'
1%
#50000
b111000 !
b111100 !
1=
1G
0,
1H
1[
0Z
1N
19
08
1)
0(
1Y
17
1'
#60000
b1111100 !
b111000 "
b110000 "
b1011100 !
b100000 "
b100100 "
b1001100 !
b1001000 !
1>
0E
0I
1M
0=
0J
0L
1Q
1,
0H
0K
0N
1S
1Z
0W
0O
18
05
1(
0%
0Y
1X
1V
0S
07
16
14
0'
1&
1$
1W
15
1%
0V
04
0$
#70000
b1000000 !
b1010000 !
b1010100 !
1=
0G
1J
0,
1D
0[
0Z
1Y
09
08
17
0)
0(
1'
1Z
18
1(
#80000
b1110100 !
b110100 "
b110000 "
b1100100 !
b1100000 !
0>
1I
0=
0J
1L
1,
0D
1O
0X
1S
06
0&
0Z
0W
08
05
0(
0%
1V
14
1$
#90000
b1101000 !
b1101100 !
1=
1G
0,
1[
1Z
19
18
1)
1(
#100000
b111000 "
b111100 "
b1111100 !
b1111000 !
0=
1J
1>
1E
1,
1K
1H
0Y
0Z
1N
07
08
0'
0(
1X
1Y
16
17
1&
1'
#110000
b11111000 !
b10111000 !
b10011000 !
b10010000 !
b10000000 !
b10000100 !
1=
0G
0J
0L
0Q
1<
0,
1D
0H
0N
0S
0[
1Z
0Y
0X
1W
0V
1U
1H
0K
09
18
07
06
15
04
13
0)
1(
0'
0&
1%
0$
1#
0Z
1Y
1V
0U
1K
0O
08
17
14
03
0(
1'
1$
0#
0Y
1X
1O
07
16
0'
1&
0X
0W
06
05
0&
0%
1W
15
1%
#120000
b1111100 "
b1011100 "
b1001100 "
b1001000 "
b10010100 !
b10010000 !
0=
1J
0>
0I
0M
1P
1,
0D
1N
0K
0O
1R
1X
0W
0H
0R
16
05
1&
0%
1Z
1W
0V
1U
0N
18
15
04
13
1(
1%
0$
1#
1Y
1V
0U
17
14
03
1'
1$
0#
0X
06
0&
#130000
b10011000 !
b10011100 !
1=
1G
0,
1H
1[
0Z
1N
19
08
1)
0(
0Y
07
0'
1X
16
1&
#140000
b1000000 "
b10111100 !
b1010000 "
b1010100 "
b10101100 !
b10101000 !
0=
0J
1L
1>
0E
1I
1,
0N
1K
1O
0H
0X
1Z
1R
0K
06
18
0&
1(
0W
1Y
0O
05
17
0%
1'
0V
1U
1X
0R
04
13
16
0$
1#
1&
1W
15
1%
1V
0U
14
03
1$
0#
#150000
b10100000 !
b10110000 !
b10110100 !
1=
0G
1J
0,
1D
1K
0[
0Z
0Y
1O
09
08
07
0)
0(
0'
1Z
0X
1R
18
06
1(
0&
0W
05
0%
0V
1U
04
13
0$
1#
#160000
b11110100 !
b1110100 "
b11010100 !
b1100100 "
b1100000 "
b11000100 !
b11000000 !
0>
0I
1M
0=
0J
0L
1Q
1,
0D
0K
1S
1W
0O
15
1%
0Z
1X
0S
08
16
0(
1&
0W
05
0%
#170000
b11001000 !
b11001100 !
1=
1G
0,
1[
1Z
19
18
1)
1(
#180000
b1101000 "
b1101100 "
b11011100 !
b11011000 !
0=
1J
1>
1E
1,
1H
1Y
0Z
1N
17
08
1'
0(
0Y
1O
07
0'
0X
1S
06
0&
1W
15
1%
#190000
b11111000 !
b11110000 !
b11100000 !
b11100100 !
1=
0G
0J
1L
0,
1D
0H
0N
0[
1Z
1Y
1X
1H
09
18
17
16
0)
1(
1'
1&
0Z
0Y
0X
08
07
06
0(
0'
0&
1Y
17
1'
#200000
b1111100 "
b1111000 "
b11110100 !
b11110000 !
0=
1J
0>
1I
1,
0D
1N
1K
0H
1Z
1X
0N
18
16
1(
1&
0Y
07
0'
#210000
b11111000 !
b11111100 !
1=
1G
0,
1H
1[
0Z
1N
19
08
1)
0(
1Y
17
1'
#220000
b11111000 "
b1111100 !
b10111000 "
b111100 !
b10011000 "
b10010000 "
b11100 !
b10000000 "
b10000100 "
b1100 !
b1000 !
0=
0J
0L
0Q
0<
1>
0E
0I
0M
0P
1T
1,
0N
0K
0O
0S
0R
0H
1Z
18
1(
0X
0W
1V
0U
0Y
06
05
14
03
07
0&
0%
1$
0#
0'
#230000
b0 !
b10000 !
b10100 !
1=
0G
1J
0,
1D
0[
0Z
1Y
09
08
17
0)
0(
1'
1Z
18
1(
#240000
b110100 !
b10010100 "
b10010000 "
b100100 !
b100000 !
0>
1I
0=
0J
1L
1,
0D
1X
16
1&
0Z
08
0(
#250000
b101000 !
b101100 !
1=
1G
0,
1[
1Z
19
18
1)
1(
#260000
b10011000 "
b10011100 "
b111100 !
b111000 !
0=
1J
1>
1E
1,
1K
1H
0Y
0Z
1O
1N
07
08
0'
0(
0X
1Y
06
17
0&
1'
1W
15
1%
#270000
b1111000 !
b1011000 !
b1010000 !
b1000000 !
b1000100 !
1=
0G
0J
0L
1Q
0,
1D
0H
0N
0O
1S
0[
1Z
0Y
1X
0W
1H
0K
0S
09
18
07
16
05
0)
1(
0'
1&
0%
0Z
1Y
1W
0V
1U
1K
08
17
15
04
13
0(
1'
1%
0$
1#
0Y
0X
1V
0U
07
06
14
03
0'
0&
1$
0#
1X
16
1&
#280000
b10111100 "
b10101100 "
b10101000 "
b1010100 !
b1010000 !
0=
1J
0>
0I
1M
1,
0D
1N
0K
1O
0X
0H
1S
06
0&
1Z
0W
0N
18
05
1(
0%
1Y
0V
1U
0O
17
04
13
1'
0$
1#
1X
0S
16
1&
1W
15
1%
1V
0U
14
03
1$
0#
#290000
b1011000 !
b1011100 !
1=
1G
0,
1H
1[
0Z
1N
19
08
1)
0(
0Y
1O
07
0'
0X
1S
06
0&
0W
05
0%
0V
1U
04
13
0$
1#
#300000
b10100000 "
b1111100 !
b10110000 "
b10110100 "
b1101100 !
b1101000 !
0=
0J
1L
1>
0E
1I
1,
0N
1K
0H
1X
1Z
0K
16
18
1&
1(
1Y
17
1'
0X
06
0&
#310000
b1100000 !
b1110000 !
b1110100 !
1=
0G
1J
0,
1D
1K
0[
0Z
0Y
09
08
07
0)
0(
0'
1Z
1X
18
16
1(
1&
#320000
b11110100 !
b11110100 "
b10110100 !
b11010100 "
b10010100 !
b11000100 "
b11000000 "
b10000100 !
b10000000 !
0>
0I
0M
1P
0=
0J
0L
0Q
1<
1,
0D
0K
0O
1R
0S
1V
0R
14
1$
0Z
0X
1W
08
06
15
0(
0&
1%
0V
04
0$
#330000
b10001000 !
b10001100 !
1=
1G
0,
1[
1Z
19
18
1)
1(
#340000
b11001000 "
b11001100 "
b10011100 !
b10011000 !
0=
1J
1>
1E
1,
1H
1Y
0Z
1N
17
08
1'
0(
0Y
07
0'
1X
16
1&
#350000
b10111000 !
b10110000 !
b10100000 !
b10100100 !
1=
0G
0J
1L
0,
1D
0H
0N
1O
0[
1Z
1Y
0X
1H
0O
1R
09
18
17
06
0)
1(
1'
0&
0Z
0Y
1X
0W
0R
08
07
16
05
0(
0'
1&
0%
1Y
1W
1V
17
15
14
1'
1%
1$
0V
04
0$
#360000
b11011100 "
b11011000 "
b10110100 !
b10110000 !
0=
1J
0>
1I
1,
0D
1N
1K
0H
1O
1Z
0X
0N
1R
18
06
1(
0&
0Y
0W
07
05
0'
0%
1V
14
1$
#370000
b10111000 !
b10111100 !
1=
1G
0,
1H
1[
0Z
1N
19
08
1)
0(
1Y
17
1'
#380000
b11111100 !
b11111000 "
b11110000 "
b11011100 !
b11100000 "
b11100100 "
b11001100 !
b11001000 !
1>
0E
0I
1M
0=
0J
0L
1Q
1,
0H
0K
0N
1S
1Z
1W
0O
18
15
1(
1%
0Y
1X
0S
07
16
0'
1&
0W
05
0%
#390000
b11000000 !
b11010000 !
b11010100 !
1=
0G
1J
0,
1D
0[
0Z
1Y
09
08
17
0)
0(
1'
1Z
18
1(
#400000
b11110100 !
b11110100 "
b11110000 "
b11100100 !
b11100000 !
0>
1I
0=
0J
1L
1,
0D
1O
0X
1S
06
0&
0Z
1W
08
15
0(
1%
#410000
b11101000 !
b11101100 !
1=
1G
0,
1[
1Z
19
18
1)
1(
#420000
b11111000 "
b11111100 "
b11111100 !
b11111000 !
0=
1J
1>
1E
1,
1K
1H
0Y
0Z
1N
07
08
0'
0(
1X
1Y
16
17
1&
1'
#430000
b1111000 !
b111000 !
b11000 !
b10000 !
b0 !
b100 !
1=
0G
0J
0L
0Q
0<
0,
1D
0H
0N
0S
0[
1Z
0Y
0X
0W
0V
1H
0K
09
18
07
06
05
04
0)
1(
0'
0&
0%
0$
0Z
1Y
1K
0O
08
17
0(
1'
0Y
1X
1O
0R
07
16
0'
1&
0X
1W
1R
06
15
0&
1%
0W
1V
0U
05
14
03
0%
1$
0#
0V
1U
04
13
0$
1#
#440000
b1111100 "
b111100 "
b11100 "
b1100 "
b1000 "
b10100 !
b10000 !
0=
1J
0>
0I
0M
0P
0T
1,
0D
1N
0K
0O
0R
1X
1W
1V
0U
0H
16
15
14
03
1&
1%
1$
0#
1Z
0W
0V
0N
18
05
04
1(
0%
0$
1Y
17
1'
0X
06
0&
#450000
b11000 !
b11100 !
1=
1G
0,
1H
1[
0Z
1N
19
08
1)
0(
0Y
07
0'
1X
16
1&
#460000
b0 "
b111100 !
b10000 "
b10100 "
b101100 !
b101000 !
0=
0J
1L
1>
0E
1I
1,
0N
1K
1O
0H
0X
1Z
0K
06
18
0&
1(
1W
1Y
0O
15
17
1%
1'
1X
16
1&
0W
05
0%
#470000
b100000 !
b110000 !
b110100 !
1=
0G
1J
0,
1D
1K
0[
0Z
0Y
1O
09
08
07
0)
0(
0'
1Z
0X
18
06
1(
0&
1W
15
1%
#480000
b1110100 !
b110100 "
b1010100 !
b100100 "
b100000 "
b1000100 !
b1000000 !
0>
0I
1M
0=
0J
0L
1Q
1,
0D
0K
1S
0W
0O
05
0%
0Z
1X
1V
0S
08
16
14
0(
1&
1$
1W
15
1%
0V
04
0$
#490000
b1001000 !
b1001100 !
1=
1G
0,
1[
1Z
19
18
1)
1(
#500000
b101000 "
b101100 "
b1011100 !
b1011000 !
0=
1J
1>
1E
1,
1H
1Y
0Z
1N
17
08
1'
0(
0Y
1O
07
0'
0X
1S
06
0&
0W
05
0%
1V
14
1$
#510000
b1111000 !
b1110000 !
b1100000 !
b1100100 !
1=
0G
0J
1L
0,
1D
0H
0N
0[
1Z
1Y
1X
1H
09
18
17
16
0)
1(
1'
1&
0Z
0Y
0X
08
07
06
0(
0'
0&
1Y
17
1'
#520000
b111100 "
b111000 "
b1110100 !
b1110000 !
0=
1J
0>
1I
1,
0D
1N
1K
0H
1Z
1X
0N
18
16
1(
1&
0Y
07
0'
#530000
b1111000 !
b1111100 !
1=
1G
0,
1H
1[
0Z
1N
19
08
1)
0(
1Y
17
1'
#540000
b11111100 !
b1111000 "
b10111100 !
b1011000 "
b1010000 "
b10011100 !
b1000000 "
b1000100 "
b10001100 !
b10001000 !
1>
0E
0I
0M
1P
0=
0J
0L
0Q
1<
1,
0H
0K
0O
1R
0N
0S
1Z
0V
1U
0R
18
04
13
1(
0$
1#
0Y
0X
1W
07
06
15
0'
0&
1%
1V
0U
14
03
1$
0#
#550000
b10000000 !
b10010000 !
b10010100 !
1=
0G
1J
0,
1D
0[
0Z
1Y
09
08
17
0)
0(
1'
1Z
18
1(
#560000
b10110100 !
b1010100 "
b1010000 "
b10100100 !
b10100000 !
0>
1I
0=
0J
1L
1,
0D
1X
16
1&
0Z
08
0(
#570000
b10101000 !
b10101100 !
1=
1G
0,
1[
1Z
19
18
1)
1(
#580000
b1011000 "
b1011100 "
b10111100 !
b10111000 !
0=
1J
1>
1E
1,
1K
1H
0Y
0Z
1O
1N
07
08
0'
0(
0X
1Y
1R
06
17
0&
1'
0W
05
0%
0V
1U
04
13
0$
1#
#590000
b11111000 !
b11011000 !
b11010000 !
b11000000 !
b11000100 !
1=
0G
0J
0L
1Q
0,
1D
0H
0N
0O
1S
0[
1Z
0Y
1X
1W
1H
0K
0S
09
18
07
16
15
0)
1(
0'
1&
1%
0Z
1Y
0W
1K
08
17
05
0(
1'
0%
0Y
0X
07
06
0'
0&
1X
16
1&
#600000
b1111100 "
b1101100 "
b1101000 "
b11010100 !
b11010000 !
0=
1J
0>
0I
1M
1,
0D
1N
0K
1O
0X
0H
1S
06
0&
1Z
1W
0N
18
15
1(
1%
1Y
0O
17
1'
1X
0S
16
1&
0W
05
0%
#610000
b11011000 !
b11011100 !
1=
1G
0,
1H
1[
0Z
1N
19
08
1)
0(
0Y
1O
07
0'
0X
1S
06
0&
1W
15
1%
#620000
b1100000 "
b11111100 !
b1110000 "
b1110100 "
b11101100 !
b11101000 !
0=
0J
1L
1>
0E
1I
1,
0N
1K
0H
1X
1Z
0K
16
18
1&
1(
1Y
17
1'
0X
06
0&
#630000
b11100000 !
b11110000 !
b11110100 !
1=
0G
1J
0,
1D
1K
0[
0Z
0Y
09
08
07
0)
0(
0'
1Z
1X
18
16
1(
1&
#640000
b11110100 "
b1110100 !
b10110100 "
b110100 !
b10010100 "
b10100 !
b10000100 "
b10000000 "
b100 !
b0 !
0=
0J
0L
0Q
0<
0>
0I
0M
0P
1T
1,
0D
0K
0O
0S
0R
0Z
0X
0W
1V
0U
08
06
05
14
03
0(
0&
0%
1$
0#
#650000
b1000 !
b1100 !
1=
1G
0,
1[
1Z
19
18
1)
1(
#660000
b10001000 "
b10001100 "
b11100 !
b11000 !
0=
1J
1>
1E
1,
1H
1Y
0Z
1N
17
08
1'
0(
0Y
07
0'
1X
16
1&
#670000
b111000 !
b110000 !
b100000 !
b100100 !
1=
0G
0J
1L
0,
1D
0H
0N
1O
0[
1Z
1Y
0X
1H
0O
09
18
17
06
0)
1(
1'
0&
0Z
0Y
1X
1W
08
07
16
15
0(
0'
1&
1%
1Y
0W
17
05
1'
0%
#680000
b10011100 "
b10011000 "
b110100 !
b110000 !
0=
1J
0>
1I
1,
0D
1N
1K
0H
1O
1Z
0X
0N
18
06
1(
0&
0Y
1W
07
15
0'
1%
#690000
b111000 !
b111100 !
1=
1G
0,
1H
1[
0Z
1N
19
08
1)
0(
1Y
17
1'
#700000
b1111100 !
b10111000 "
b10110000 "
b1011100 !
b10100000 "
b10100100 "
b1001100 !
b1001000 !
1>
0E
0I
1M
0=
0J
0L
1Q
1,
0H
0K
0N
1S
1Z
0W
0O
18
05
1(
0%
0Y
1X
0V
1U
0S
07
16
04
13
0'
1&
0$
1#
1W
15
1%
1V
0U
14
03
1$
0#
#710000
b1000000 !
b1010000 !
b1010100 !
1=
0G
1J
0,
1D
0[
0Z
1Y
09
08
17
0)
0(
1'
1Z
18
1(
#720000
b1110100 !
b10110100 "
b10110000 "
b1100100 !
b1100000 !
0>
1I
0=
0J
1L
1,
0D
1O
0X
1S
06
0&
0Z
0W
08
05
0(
0%
0V
1U
04
13
0$
1#
#730000
b1101000 !
b1101100 !
1=
1G
0,
1[
1Z
19
18
1)
1(
#740000
b10111000 "
b10111100 "
b1111100 !
b1111000 !
0=
1J
1>
1E
1,
1K
1H
0Y
0Z
1N
07
08
0'
0(
1X
1Y
16
17
1&
1'
#750000
b11111000 !
b10111000 !
b10011000 !
b10010000 !
b10000000 !
b10000100 !
1=
0G
0J
0L
0Q
1<
0,
1D
0H
0N
0S
0[
1Z
0Y
0X
1W
1V
1H
0K
09
18
07
06
15
14
0)
1(
0'
0&
1%
1$
0Z
1Y
0V
1K
0O
08
17
04
0(
1'
0$
0Y
1X
1O
07
16
0'
1&
0X
0W
06
05
0&
0%
1W
15
1%
#760000
b11111100 "
b11011100 "
b11001100 "
b11001000 "
b10010100 !
b10010000 !
0=
1J
0>
0I
0M
1P
1,
0D
1N
0K
0O
1R
1X
0W
0H
0R
16
05
1&
0%
1Z
1W
1V
0N
18
15
14
1(
1%
1$
1Y
0V
17
04
1'
0$
0X
06
0&
#770000
b10011000 !
b10011100 !
1=
1G
0,
1H
1[
0Z
1N
19
08
1)
0(
0Y
07
0'
1X
16
1&
#780000
b11000000 "
b10111100 !
b11010000 "
b11010100 "
b10101100 !
b10101000 !
0=
0J
1L
1>
0E
1I
1,
0N
1K
1O
0H
0X
1Z
1R
0K
06
18
0&
1(
0W
1Y
0O
05
17
0%
1'
1V
1X
0R
14
16
1$
1&
1W
15
1%
0V
04
0$
#790000
b10100000 !
b10110000 !
b10110100 !
1=
0G
1J
0,
1D
1K
0[
0Z
0Y
1O
09
08
07
0)
0(
0'
1Z
0X
1R
18
06
1(
0&
0W
05
0%
1V
14
1$
#800000
b11110100 !
b11110100 "
b11010100 !
b11100100 "
b11100000 "
b11000100 !
b11000000 !
0>
0I
1M
0=
0J
0L
1Q
1,
0D
0K
1S
1W
0O
15
1%
0Z
1X
0S
08
16
0(
1&
0W
05
0%
#810000
b11001000 !
b11001100 !
1=
1G
0,
1[
1Z
19
18
1)
1(
#820000
b11101000 "
b11101100 "
b11011100 !
b11011000 !
0=
1J
1>
1E
1,
1H
1Y
0Z
1N
17
08
1'
0(
0Y
1O
07
0'
0X
1S
06
0&
1W
15
1%
#830000
b11111000 !
b11110000 !
b11100000 !
b11100100 !
1=
0G
0J
1L
0,
1D
0H
0N
0[
1Z
1Y
1X
1H
09
18
17
16
0)
1(
1'
1&
0Z
0Y
0X
08
07
06
0(
0'
0&
1Y
17
1'
#840000
b11111100 "
b11111000 "
b11110100 !
b11110000 !
0=
1J
0>
1I
1,
0D
1N
1K
0H
1Z
1X
0N
18
16
1(
1&
0Y
07
0'
#850000
b11111000 !
b11111100 !
1=
1G
0,
1H
1[
0Z
1N
19
08
1)
0(
1Y
17
1'
#860000
b1111000 "
b1111100 !
b111000 "
b111100 !
b11000 "
b10000 "
b11100 !
b0 "
b100 "
b1100 !
b1000 !
0=
0J
0L
0Q
0<
1>
0E
0I
0M
0P
0T
1,
0N
0K
0O
0S
0R
0H
0U
1Z
03
18
0#
1(
0X
0W
0V
0Y
06
05
04
07
0&
0%
0$
0'
#870000
b0 !
b10000 !
b10100 !
1=
0G
1J
0,
1D
0[
0Z
1Y
09
08
17
0)
0(
1'
1Z
18
1(
#880000
b110100 !
b10100 "
b10000 "
b100100 !
b100000 !
0>
1I
0=
0J
1L
1,
0D
1X
16
1&
0Z
08
0(
#890000
b101000 !
b101100 !
1=
1G
0,
1[
1Z
19
18
1)
1(
#900000
b11000 "
b11100 "
b111100 !
b111000 !
0=
1J
1>
1E
1,
1K
1H
0Y
0Z
1O
1N
07
08
0'
0(
0X
1Y
06
17
0&
1'
1W
15
1%
#910000
b1111000 !
b1011000 !
b1010000 !
b1000000 !
b1000100 !
1=
0G
0J
0L
1Q
0,
1D
0H
0N
0O
1S
0[
1Z
0Y
1X
0W
1H
0K
0S
09
18
07
16
05
0)
1(
0'
1&
0%
0Z
1Y
1W
1V
1K
08
17
15
14
0(
1'
1%
1$
0Y
0X
0V
07
06
04
0'
0&
0$
1X
16
1&
#920000
b111100 "
b101100 "
b101000 "
b1010100 !
b1010000 !
0=
1J
0>
0I
1M
1,
0D
1N
0K
1O
0X
0H
1S
06
0&
1Z
0W
0N
18
05
1(
0%
1Y
1V
0O
17
14
1'
1$
1X
0S
16
1&
1W
15
1%
0V
04
0$
#930000
b1011000 !
b1011100 !
1=
1G
0,
1H
1[
0Z
1N
19
08
1)
0(
0Y
1O
07
0'
0X
1S
06
0&
0W
05
0%
1V
14
1$
#940000
b100000 "
b1111100 !
b110000 "
b110100 "
b1101100 !
b1101000 !
0=
0J
1L
1>
0E
1I
1,
0N
1K
0H
1X
1Z
0K
16
18
1&
1(
1Y
17
1'
0X
06
0&
#950000
b1100000 !
b1110000 !
b1110100 !
1=
0G
1J
0,
1D
1K
0[
0Z
0Y
09
08
07
0)
0(
0'
1Z
1X
18
16
1(
1&
#960000
b11110100 !
b1110100 "
b10110100 !
b1010100 "
b10010100 !
b1000100 "
b1000000 "
b10000100 !
b10000000 !
0>
0I
0M
1P
0=
0J
0L
0Q
1<
1,
0D
0K
0O
1R
0S
0V
1U
0R
04
13
0$
1#
0Z
0X
1W
08
06
15
0(
0&
1%
1V
0U
14
03
1$
0#
#970000
b10001000 !
b10001100 !
1=
1G
0,
1[
1Z
19
18
1)
1(
#980000
b1001000 "
b1001100 "
b10011100 !
b10011000 !
0=
1J
1>
1E
1,
1H
1Y
0Z
1N
17
08
1'
0(
0Y
07
0'
1X
16
1&
#990000
b10111000 !
b10110000 !
b10100000 !
b10100100 !
1=
0G
0J
1L
0,
1D
0H
0N
1O
0[
1Z
1Y
0X
1H
0O
1R
09
18
17
06
0)
1(
1'
0&
0Z
0Y
1X
0W
0R
08
07
16
05
0(
0'
1&
0%
1Y
1W
0V
1U
17
15
04
13
1'
1%
0$
1#
1V
0U
14
03
1$
0#
