quartus/simulation/qsim/jpd_counter_display.msim.vcd
$comment
	File created using the following command:
		vcd file jpd_counter_display.msim.vcd -direction
$end
$date
	Sun Apr 02 14:26:08 2023
$end
$version
	ModelSim Version 10.1d
$end
$timescale
	1ps
$end
$scope module jpd_counter_display_vlg_vec_tst $end
$var reg 1 ! c0 $end
$var reg 1 " c1 $end
$var reg 1 # ck $end
$var reg 3 $ d [2:0] $end
$var reg 1 % rst $end
$var wire 1 & f_ck $end
$var wire 1 ' q [2] $end
$var wire 1 ( q [1] $end
$var wire 1 ) q [0] $end
$var wire 1 * s0 $end
$var wire 1 + s1 $end
$var wire 1 , s2 $end
$var wire 1 - s3 $end
$var wire 1 . s4 $end
$var wire 1 / s5 $end
$var wire 1 0 s6 $end
$var wire 1 1 T [7] $end
$var wire 1 2 T [6] $end
$var wire 1 3 T [5] $end
$var wire 1 4 T [4] $end
$var wire 1 5 T [3] $end
$var wire 1 6 T [2] $end
$var wire 1 7 T [1] $end
$var wire 1 8 T [0] $end
$var wire 1 9 sampler $end
$scope module i1 $end
$var wire 1 : gnd $end
$var wire 1 ; vcc $end
$var wire 1 < unknown $end
$var tri1 1 = devclrn $end
$var tri1 1 > devpor $end
$var tri1 1 ? devoe $end
$var wire 1 @ s6~output_o $end
$var wire 1 A q[2]~output_o $end
$var wire 1 B q[1]~output_o $end
$var wire 1 C q[0]~output_o $end
$var wire 1 D s5~output_o $end
$var wire 1 E s4~output_o $end
$var wire 1 F s3~output_o $end
$var wire 1 G s2~output_o $end
$var wire 1 H s1~output_o $end
$var wire 1 I s0~output_o $end
$var wire 1 J f_ck~output_o $end
$var wire 1 K T[7]~output_o $end
$var wire 1 L T[6]~output_o $end
$var wire 1 M T[5]~output_o $end
$var wire 1 N T[4]~output_o $end
$var wire 1 O T[3]~output_o $end
$var wire 1 P T[2]~output_o $end
$var wire 1 Q T[1]~output_o $end
$var wire 1 R T[0]~output_o $end
$var wire 1 S ck~input_o $end
$var wire 1 T ck~inputclkctrl_outclk $end
$var wire 1 U c1~input_o $end
$var wire 1 V d[0]~input_o $end
$var wire 1 W c0~input_o $end
$var wire 1 X inst14|inst1|inst6|inst10~0_combout $end
$var wire 1 Y rst~input_o $end
$var wire 1 Z rst~inputclkctrl_outclk $end
$var wire 1 [ inst14|inst1|inst~q $end
$var wire 1 \ d[2]~input_o $end
$var wire 1 ] inst14|inst2|inst6|inst10~1_combout $end
$var wire 1 ^ d[1]~input_o $end
$var wire 1 _ inst14|inst6|inst6|inst10~0_combout $end
$var wire 1 ` inst14|inst6|inst6|inst10~1_combout $end
$var wire 1 a inst14|inst6|inst~q $end
$var wire 1 b inst14|inst2|inst6|inst10~0_combout $end
$var wire 1 c inst14|inst2|inst6|inst10~combout $end
$var wire 1 d inst14|inst2|inst~q $end
$var wire 1 e inst|inst3|inst13~0_combout $end
$var wire 1 f inst|inst38|inst13~0_combout $end
$var wire 1 g inst|inst12|inst13~0_combout $end
$var wire 1 h inst|inst13|inst13~0_combout $end
$var wire 1 i inst|inst19|inst13~0_combout $end
$var wire 1 j inst|inst29|inst13~0_combout $end
$var wire 1 k inst|inst38|inst13~1_combout $end
$var wire 1 l inst1|inst3~0_combout $end
$var wire 1 m inst1|inst3~1_combout $end
$var wire 1 n inst1|inst3~2_combout $end
$var wire 1 o inst1|inst3~3_combout $end
$var wire 1 p inst1|inst3~4_combout $end
$var wire 1 q inst1|inst3~5_combout $end
$var wire 1 r inst1|inst3~6_combout $end
$var wire 1 s inst1|inst7~combout $end
$upscope $end
$upscope $end
$enddefinitions $end
#0
$dumpvars
1!
0"
0#
b0 $
0%
0&
0)
0(
0'
0*
0+
0,
0-
0.
0/
10
18
07
06
05
04
03
02
01
x9
0:
1;
x<
1=
1>
1?
1@
0A
0B
0C
0D
0E
0F
0G
0H
0I
0J
0K
0L
0M
0N
0O
0P
0Q
1R
0S
0T
0U
0V
1W
1X
0Y
0Z
0[
0\
0]
0^
0_
0`
0a
1b
0c
0d
1e
0f
1g
1h
1i
1j
1k
0l
0m
0n
0o
0p
0q
0r
0s
$end
#5000
1#
09
1S
1T
1J
1&
1[
1s
0g
1_
0X
1C
1)
1r
1f
0e
1`
0R
1E
1Q
1D
0@
08
1.
17
1/
00
#10000
0#
19
0S
0T
0J
0&
#15000
1#
09
1S
1T
1J
1&
1a
0[
0k
0h
1X
1B
0C
1(
0)
0r
1q
0f
1I
1F
0Q
1P
0D
1*
1-
07
16
0/
#20000
0#
19
0S
0T
0J
0&
#25000
1#
09
1S
1T
1J
1&
1[
1k
0b
0_
0X
1C
1)
0q
1p
1f
1e
1c
0`
0I
0P
1O
1D
1@
0*
06
15
1/
10
#30000
0#
19
0S
0T
0J
0&
#35000
1#
09
1S
1T
1J
1&
1d
0a
0[
1h
1g
1]
1b
1X
1A
0B
0C
1'
0(
0)
0p
1o
0f
0e
0F
0E
0O
1N
0D
0@
0-
0.
05
14
0/
00
#40000
0#
19
0S
0T
0J
0&
#45000
1#
09
1S
1T
1J
1&
1[
0k
0j
1_
0X
1C
1)
0o
1n
1`
1I
1H
0N
1M
1*
1+
04
13
#50000
0#
19
0S
0T
0J
0&
#55000
1#
09
1S
1T
1J
1&
1a
0[
1k
0i
1X
1B
0C
1(
0)
0n
1m
1e
0I
1G
0M
1L
1@
0*
1,
03
12
10
#60000
0#
19
0S
0T
0J
0&
#65000
1#
09
1S
1T
1J
1&
1[
0h
0b
0_
0X
1C
1)
0m
1l
0e
0c
0`
1F
0L
1K
0@
1-
02
11
00
#70000
0#
19
0S
0T
0J
0&
#75000
1#
09
1S
1T
1J
1&
0d
0a
0[
0s
1j
1i
1h
0]
1b
1X
0A
0B
0C
0'
0(
0)
0l
1e
1R
0H
0G
0F
0K
1@
18
0+
0,
0-
01
10
#80000
0#
19
0S
0T
0J
0&
#85000
1#
09
1S
1T
1J
1&
1[
1s
0g
1_
0X
1C
1)
1r
1f
0e
1`
0R
1E
1Q
1D
0@
08
1.
17
1/
00
#90000
0#
19
0S
0T
0J
0&
#95000
1#
09
1S
1T
1J
1&
1a
0[
0k
0h
1X
1B
0C
1(
0)
0r
1q
0f
1I
1F
0Q
1P
0D
1*
1-
07
16
0/
#100000
0#
19
0S
0T
0J
0&
#105000
1#
09
1S
1T
1J
1&
1[
1k
0b
0_
0X
1C
1)
0q
1p
1f
1e
1c
0`
0I
0P
1O
1D
1@
0*
06
15
1/
10
#110000
0#
19
0S
0T
0J
0&
#115000
1#
09
1S
1T
1J
1&
1d
0a
0[
1h
1g
1]
1b
1X
1A
0B
0C
1'
0(
0)
0p
1o
0f
0e
0F
0E
0O
1N
0D
0@
0-
0.
05
14
0/
00
#120000
0#
19
0S
0T
0J
0&
#125000
1#
09
1S
1T
1J
1&
1[
0k
0j
1_
0X
1C
1)
0o
1n
1`
1I
1H
0N
1M
1*
1+
04
13
#130000
0#
19
0S
0T
0J
0&
#135000
1#
09
1S
1T
1J
1&
1a
0[
1k
0i
1X
1B
0C
1(
0)
0n
1m
1e
0I
1G
0M
1L
1@
0*
1,
03
12
10
#140000
0#
19
0S
0T
0J
0&
#145000
1#
09
1S
1T
1J
1&
1[
0h
0b
0_
0X
1C
1)
0m
1l
0e
0c
0`
1F
0L
1K
0@
1-
02
11
00
#150000
0#
19
0S
0T
0J
0&
#155000
1#
09
1S
1T
1J
1&
0d
0a
0[
0s
1j
1i
1h
0]
1b
1X
0A
0B
0C
0'
0(
0)
0l
1e
1R
0H
0G
0F
0K
1@
18
0+
0,
0-
01
10
#160000
0#
19
0S
0T
0J
0&
#165000
1#
09
1S
1T
1J
1&
1[
1s
0g
1_
0X
1C
1)
1r
1f
0e
1`
0R
1E
1Q
1D
0@
08
1.
17
1/
00
#170000
0#
19
0S
0T
0J
0&
#175000
1#
09
1S
1T
1J
1&
1a
0[
0k
0h
1X
1B
0C
1(
0)
0r
1q
0f
1I
1F
0Q
1P
0D
1*
1-
07
16
0/
#180000
0#
19
0S
0T
0J
0&
#185000
1#
09
1S
1T
1J
1&
1[
1k
0b
0_
0X
1C
1)
0q
1p
1f
1e
1c
0`
0I
0P
1O
1D
1@
0*
06
15
1/
10
#190000
0#
19
0S
0T
0J
0&
#195000
1#
09
1S
1T
1J
1&
1d
0a
0[
1h
1g
1]
1b
1X
1A
0B
0C
1'
0(
0)
0p
1o
0f
0e
0F
0E
0O
1N
0D
0@
0-
0.
05
14
0/
00
#200000
0#
19
0S
0T
0J
0&
#205000
1#
09
1S
1T
1J
1&
1[
0k
0j
1_
0X
1C
1)
0o
1n
1`
1I
1H
0N
1M
1*
1+
04
13
#210000
0#
19
0S
0T
0J
0&
#215000
1#
09
1S
1T
1J
1&
1a
0[
1k
0i
1X
1B
0C
1(
0)
0n
1m
1e
0I
1G
0M
1L
1@
0*
1,
03
12
10
#220000
0#
19
0S
0T
0J
0&
#225000
1#
09
1S
1T
1J
1&
1[
0h
0b
0_
0X
1C
1)
0m
1l
0e
0c
0`
1F
0L
1K
0@
1-
02
11
00
#230000
0#
19
0S
0T
0J
0&
#235000
1#
09
1S
1T
1J
1&
0d
0a
0[
0s
1j
1i
1h
0]
1b
1X
0A
0B
0C
0'
0(
0)
0l
1e
1R
0H
0G
0F
0K
1@
18
0+
0,
0-
01
10
#240000
0#
19
0S
0T
0J
0&
#245000
1#
09
1S
1T
1J
1&
1[
1s
0g
1_
0X
1C
1)
1r
1f
0e
1`
0R
1E
1Q
1D
0@
08
1.
17
1/
00
#250000
0#
19
0S
0T
0J
0&
#255000
1#
09
1S
1T
1J
1&
1a
0[
0k
0h
1X
1B
0C
1(
0)
0r
1q
0f
1I
1F
0Q
1P
0D
1*
1-
07
16
0/
#260000
0#
19
0S
0T
0J
0&
#265000
1#
09
1S
1T
1J
1&
1[
1k
0b
0_
0X
1C
1)
0q
1p
1f
1e
1c
0`
0I
0P
1O
1D
1@
0*
06
15
1/
10
#270000
0#
19
0S
0T
0J
0&
#275000
1#
09
1S
1T
1J
1&
1d
0a
0[
1h
1g
1]
1b
1X
1A
0B
0C
1'
0(
0)
0p
1o
0f
0e
0F
0E
0O
1N
0D
0@
0-
0.
05
14
0/
00
#280000
0#
19
0S
0T
0J
0&
#285000
1#
09
1S
1T
1J
1&
1[
0k
0j
1_
0X
1C
1)
0o
1n
1`
1I
1H
0N
1M
1*
1+
04
13
#290000
0#
19
0S
0T
0J
0&
#295000
1#
09
1S
1T
1J
1&
1a
0[
1k
0i
1X
1B
0C
1(
0)
0n
1m
1e
0I
1G
0M
1L
1@
0*
1,
03
12
10
#300000
0#
19
0S
0T
0J
0&
#305000
1#
09
1S
1T
1J
1&
1[
0h
0b
0_
0X
1C
1)
0m
1l
0e
0c
0`
1F
0L
1K
0@
1-
02
11
00
#310000
0#
19
0S
0T
0J
0&
#315000
1#
09
1S
1T
1J
1&
0d
0a
0[
0s
1j
1i
1h
0]
1b
1X
0A
0B
0C
0'
0(
0)
0l
1e
1R
0H
0G
0F
0K
1@
18
0+
0,
0-
01
10
#320000
0#
19
0S
0T
0J
0&
#325000
1#
09
1S
1T
1J
1&
1[
1s
0g
1_
0X
1C
1)
1r
1f
0e
1`
0R
1E
1Q
1D
0@
08
1.
17
1/
00
#330000
0#
19
0S
0T
0J
0&
#335000
1#
09
1S
1T
1J
1&
1a
0[
0k
0h
1X
1B
0C
1(
0)
0r
1q
0f
1I
1F
0Q
1P
0D
1*
1-
07
16
0/
#340000
0#
19
0S
0T
0J
0&
#345000
1#
09
1S
1T
1J
1&
1[
1k
0b
0_
0X
1C
1)
0q
1p
1f
1e
1c
0`
0I
0P
1O
1D
1@
0*
06
15
1/
10
#350000
0#
19
0S
0T
0J
0&
#355000
1#
09
1S
1T
1J
1&
1d
0a
0[
1h
1g
1]
1b
1X
1A
0B
0C
1'
0(
0)
0p
1o
0f
0e
0F
0E
0O
1N
0D
0@
0-
0.
05
14
0/
00
#360000
0#
19
0S
0T
0J
0&
#365000
1#
09
1S
1T
1J
1&
1[
0k
0j
1_
0X
1C
1)
0o
1n
1`
1I
1H
0N
1M
1*
1+
04
13
#370000
0#
19
0S
0T
0J
0&
#375000
1#
09
1S
1T
1J
1&
1a
0[
1k
0i
1X
1B
0C
1(
0)
0n
1m
1e
0I
1G
0M
1L
1@
0*
1,
03
12
10
#380000
0#
19
0S
0T
0J
0&
#385000
1#
09
1S
1T
1J
1&
1[
0h
0b
0_
0X
1C
1)
0m
1l
0e
0c
0`
1F
0L
1K
0@
1-
02
11
00
#390000
0#
19
0S
0T
0J
0&
#395000
1#
09
1S
1T
1J
1&
0d
0a
0[
0s
1j
1i
1h
0]
1b
1X
0A
0B
0C
0'
0(
0)
0l
1e
1R
0H
0G
0F
0K
1@
18
0+
0,
0-
01
10
#400000
0#
19
0S
0T
0J
0&
#405000
1#
09
1S
1T
1J
1&
1[
1s
0g
1_
0X
1C
1)
1r
1f
0e
1`
0R
1E
1Q
1D
0@
08
1.
17
1/
00
#410000
0#
19
0S
0T
0J
0&
#415000
1#
09
1S
1T
1J
1&
1a
0[
0k
0h
1X
1B
0C
1(
0)
0r
1q
0f
1I
1F
0Q
1P
0D
1*
1-
07
16
0/
#420000
0#
19
0S
0T
0J
0&
#425000
1#
09
1S
1T
1J
1&
1[
1k
0b
0_
0X
1C
1)
0q
1p
1f
1e
1c
0`
0I
0P
1O
1D
1@
0*
06
15
1/
10
#430000
0#
19
0S
0T
0J
0&
#435000
1#
09
1S
1T
1J
1&
1d
0a
0[
1h
1g
1]
1b
1X
1A
0B
0C
1'
0(
0)
0p
1o
0f
0e
0F
0E
0O
1N
0D
0@
0-
0.
05
14
0/
00
#440000
0#
19
0S
0T
0J
0&
#445000
1#
09
1S
1T
1J
1&
1[
0k
0j
1_
0X
1C
1)
0o
1n
1`
1I
1H
0N
1M
1*
1+
04
13
#450000
0#
19
0S
0T
0J
0&
#455000
1#
09
1S
1T
1J
1&
1a
0[
1k
0i
1X
1B
0C
1(
0)
0n
1m
1e
0I
1G
0M
1L
1@
0*
1,
03
12
10
#460000
0#
19
0S
0T
0J
0&
#465000
1#
09
1S
1T
1J
1&
1[
0h
0b
0_
0X
1C
1)
0m
1l
0e
0c
0`
1F
0L
1K
0@
1-
02
11
00
#470000
0#
19
0S
0T
0J
0&
#475000
1#
09
1S
1T
1J
1&
0d
0a
0[
0s
1j
1i
1h
0]
1b
1X
0A
0B
0C
0'
0(
0)
0l
1e
1R
0H
0G
0F
0K
1@
18
0+
0,
0-
01
10
#480000
0#
19
0S
0T
0J
0&
#485000
1#
09
1S
1T
1J
1&
1[
1s
0g
1_
0X
1C
1)
1r
1f
0e
1`
0R
1E
1Q
1D
0@
08
1.
17
1/
00
#490000
0#
19
0S
0T
0J
0&
#495000
1#
09
1S
1T
1J
1&
1a
0[
0k
0h
1X
1B
0C
1(
0)
0r
1q
0f
1I
1F
0Q
1P
0D
1*
1-
07
16
0/
#500000
0#
19
0S
0T
0J
0&
#505000
1#
09
1S
1T
1J
1&
1[
1k
0b
0_
0X
1C
1)
0q
1p
1f
1e
1c
0`
0I
0P
1O
1D
1@
0*
06
15
1/
10
#510000
0#
19
0S
0T
0J
0&
#515000
1#
09
1S
1T
1J
1&
1d
0a
0[
1h
1g
1]
1b
1X
1A
0B
0C
1'
0(
0)
0p
1o
0f
0e
0F
0E
0O
1N
0D
0@
0-
0.
05
14
0/
00
#520000
0#
19
0S
0T
0J
0&
#525000
1#
09
1S
1T
1J
1&
1[
0k
0j
1_
0X
1C
1)
0o
1n
1`
1I
1H
0N
1M
1*
1+
04
13
#530000
0#
19
0S
0T
0J
0&
#535000
1#
09
1S
1T
1J
1&
1a
0[
1k
0i
1X
1B
0C
1(
0)
0n
1m
1e
0I
1G
0M
1L
1@
0*
1,
03
12
10
#540000
0#
19
0S
0T
0J
0&
#545000
1#
09
1S
1T
1J
1&
1[
0h
0b
0_
0X
1C
1)
0m
1l
0e
0c
0`
1F
0L
1K
0@
1-
02
11
00
#550000
0#
19
0S
0T
0J
0&
#555000
1#
09
1S
1T
1J
1&
0d
0a
0[
0s
1j
1i
1h
0]
1b
1X
0A
0B
0C
0'
0(
0)
0l
1e
1R
0H
0G
0F
0K
1@
18
0+
0,
0-
01
10
#560000
0#
19
0S
0T
0J
0&
#565000
1#
09
1S
1T
1J
1&
1[
1s
0g
1_
0X
1C
1)
1r
1f
0e
1`
0R
1E
1Q
1D
0@
08
1.
17
1/
00
#570000
0#
19
0S
0T
0J
0&
#575000
1#
09
1S
1T
1J
1&
1a
0[
0k
0h
1X
1B
0C
1(
0)
0r
1q
0f
1I
1F
0Q
1P
0D
1*
1-
07
16
0/
#580000
0#
19
0S
0T
0J
0&
#585000
1#
09
1S
1T
1J
1&
1[
1k
0b
0_
0X
1C
1)
0q
1p
1f
1e
1c
0`
0I
0P
1O
1D
1@
0*
06
15
1/
10
#590000
0#
19
0S
0T
0J
0&
#595000
1#
09
1S
1T
1J
1&
1d
0a
0[
1h
1g
1]
1b
1X
1A
0B
0C
1'
0(
0)
0p
1o
0f
0e
0F
0E
0O
1N
0D
0@
0-
0.
05
14
0/
00
#600000
0#
19
0S
0T
0J
0&
#605000
1#
09
1S
1T
1J
1&
1[
0k
0j
1_
0X
1C
1)
0o
1n
1`
1I
1H
0N
1M
1*
1+
04
13
#610000
0#
19
0S
0T
0J
0&
#615000
1#
09
1S
1T
1J
1&
1a
0[
1k
0i
1X
1B
0C
1(
0)
0n
1m
1e
0I
1G
0M
1L
1@
0*
1,
03
12
10
#620000
0#
19
0S
0T
0J
0&
#625000
1#
09
1S
1T
1J
1&
1[
0h
0b
0_
0X
1C
1)
0m
1l
0e
0c
0`
1F
0L
1K
0@
1-
02
11
00
#630000
0#
19
0S
0T
0J
0&
#635000
1#
09
1S
1T
1J
1&
0d
0a
0[
0s
1j
1i
1h
0]
1b
1X
0A
0B
0C
0'
0(
0)
0l
1e
1R
0H
0G
0F
0K
1@
18
0+
0,
0-
01
10
#640000
0#
19
0S
0T
0J
0&
#645000
1#
09
1S
1T
1J
1&
1[
1s
0g
1_
0X
1C
1)
1r
1f
0e
1`
0R
1E
1Q
1D
0@
08
1.
17
1/
00
#650000
0#
19
0S
0T
0J
0&
#655000
1#
09
1S
1T
1J
1&
1a
0[
0k
0h
1X
1B
0C
1(
0)
0r
1q
0f
1I
1F
0Q
1P
0D
1*
1-
07
16
0/
#660000
0#
19
0S
0T
0J
0&
#665000
1#
09
1S
1T
1J
1&
1[
1k
0b
0_
0X
1C
1)
0q
1p
1f
1e
1c
0`
0I
0P
1O
1D
1@
0*
06
15
1/
10
#670000
0#
19
0S
0T
0J
0&
#675000
1#
09
1S
1T
1J
1&
1d
0a
0[
1h
1g
1]
1b
1X
1A
0B
0C
1'
0(
0)
0p
1o
0f
0e
0F
0E
0O
1N
0D
0@
0-
0.
05
14
0/
00
#680000
0#
19
0S
0T
0J
0&
#685000
1#
09
1S
1T
1J
1&
1[
0k
0j
1_
0X
1C
1)
0o
1n
1`
1I
1H
0N
1M
1*
1+
04
13
#690000
0#
19
0S
0T
0J
0&
#695000
1#
09
1S
1T
1J
1&
1a
0[
1k
0i
1X
1B
0C
1(
0)
0n
1m
1e
0I
1G
0M
1L
1@
0*
1,
03
12
10
#700000
0#
19
0S
0T
0J
0&
#705000
1#
09
1S
1T
1J
1&
1[
0h
0b
0_
0X
1C
1)
0m
1l
0e
0c
0`
1F
0L
1K
0@
1-
02
11
00
#710000
0#
19
0S
0T
0J
0&
#715000
1#
09
1S
1T
1J
1&
0d
0a
0[
0s
1j
1i
1h
0]
1b
1X
0A
0B
0C
0'
0(
0)
0l
1e
1R
0H
0G
0F
0K
1@
18
0+
0,
0-
01
10
#720000
0#
19
0S
0T
0J
0&
#725000
1#
09
1S
1T
1J
1&
1[
1s
0g
1_
0X
1C
1)
1r
1f
0e
1`
0R
1E
1Q
1D
0@
08
1.
17
1/
00
#730000
0#
19
0S
0T
0J
0&
#735000
1#
09
1S
1T
1J
1&
1a
0[
0k
0h
1X
1B
0C
1(
0)
0r
1q
0f
1I
1F
0Q
1P
0D
1*
1-
07
16
0/
#740000
0#
19
0S
0T
0J
0&
#745000
1#
09
1S
1T
1J
1&
1[
1k
0b
0_
0X
1C
1)
0q
1p
1f
1e
1c
0`
0I
0P
1O
1D
1@
0*
06
15
1/
10
#750000
0#
19
0S
0T
0J
0&
#755000
1#
09
1S
1T
1J
1&
1d
0a
0[
1h
1g
1]
1b
1X
1A
0B
0C
1'
0(
0)
0p
1o
0f
0e
0F
0E
0O
1N
0D
0@
0-
0.
05
14
0/
00
#760000
0#
19
0S
0T
0J
0&
#765000
1#
09
1S
1T
1J
1&
1[
0k
0j
1_
0X
1C
1)
0o
1n
1`
1I
1H
0N
1M
1*
1+
04
13
#770000
0#
19
0S
0T
0J
0&
#775000
1#
09
1S
1T
1J
1&
1a
0[
1k
0i
1X
1B
0C
1(
0)
0n
1m
1e
0I
1G
0M
1L
1@
0*
1,
03
12
10
#780000
0#
19
0S
0T
0J
0&
#785000
1#
09
1S
1T
1J
1&
1[
0h
0b
0_
0X
1C
1)
0m
1l
0e
0c
0`
1F
0L
1K
0@
1-
02
11
00
#790000
0#
19
0S
0T
0J
0&
#795000
1#
09
1S
1T
1J
1&
0d
0a
0[
0s
1j
1i
1h
0]
1b
1X
0A
0B
0C
0'
0(
0)
0l
1e
1R
0H
0G
0F
0K
1@
18
0+
0,
0-
01
10
#800000
0#
19
0S
0T
0J
0&
#805000
1#
09
1S
1T
1J
1&
1[
1s
0g
1_
0X
1C
1)
1r
1f
0e
1`
0R
1E
1Q
1D
0@
08
1.
17
1/
00
#810000
0#
19
0S
0T
0J
0&
#815000
1#
09
1S
1T
1J
1&
1a
0[
0k
0h
1X
1B
0C
1(
0)
0r
1q
0f
1I
1F
0Q
1P
0D
1*
1-
07
16
0/
#820000
0#
19
0S
0T
0J
0&
#825000
1#
09
1S
1T
1J
1&
1[
1k
0b
0_
0X
1C
1)
0q
1p
1f
1e
1c
0`
0I
0P
1O
1D
1@
0*
06
15
1/
10
#830000
0#
19
0S
0T
0J
0&
#835000
1#
09
1S
1T
1J
1&
1d
0a
0[
1h
1g
1]
1b
1X
1A
0B
0C
1'
0(
0)
0p
1o
0f
0e
0F
0E
0O
1N
0D
0@
0-
0.
05
14
0/
00
#840000
0#
19
0S
0T
0J
0&
#845000
1#
09
1S
1T
1J
1&
1[
0k
0j
1_
0X
1C
1)
0o
1n
1`
1I
1H
0N
1M
1*
1+
04
13
#850000
0#
19
0S
0T
0J
0&
#855000
1#
09
1S
1T
1J
1&
1a
0[
1k
0i
1X
1B
0C
1(
0)
0n
1m
1e
0I
1G
0M
1L
1@
0*
1,
03
12
10
#860000
0#
19
0S
0T
0J
0&
#865000
1#
09
1S
1T
1J
1&
1[
0h
0b
0_
0X
1C
1)
0m
1l
0e
0c
0`
1F
0L
1K
0@
1-
02
11
00
#870000
0#
19
0S
0T
0J
0&
#875000
1#
09
1S
1T
1J
1&
0d
0a
0[
0s
1j
1i
1h
0]
1b
1X
0A
0B
0C
0'
0(
0)
0l
1e
1R
0H
0G
0F
0K
1@
18
0+
0,
0-
01
10
#880000
0#
19
0S
0T
0J
0&
#885000
1#
09
1S
1T
1J
1&
1[
1s
0g
1_
0X
1C
1)
1r
1f
0e
1`
0R
1E
1Q
1D
0@
08
1.
17
1/
00
#890000
0#
19
0S
0T
0J
0&
#895000
1#
09
1S
1T
1J
1&
1a
0[
0k
0h
1X
1B
0C
1(
0)
0r
1q
0f
1I
1F
0Q
1P
0D
1*
1-
07
16
0/
#900000
0#
19
0S
0T
0J
0&
#905000
1#
09
1S
1T
1J
1&
1[
1k
0b
0_
0X
1C
1)
0q
1p
1f
1e
1c
0`
0I
0P
1O
1D
1@
0*
06
15
1/
10
#910000
0#
19
0S
0T
0J
0&
#915000
1#
09
1S
1T
1J
1&
1d
0a
0[
1h
1g
1]
1b
1X
1A
0B
0C
1'
0(
0)
0p
1o
0f
0e
0F
0E
0O
1N
0D
0@
0-
0.
05
14
0/
00
#920000
0#
19
0S
0T
0J
0&
#925000
1#
09
1S
1T
1J
1&
1[
0k
0j
1_
0X
1C
1)
0o
1n
1`
1I
1H
0N
1M
1*
1+
04
13
#930000
0#
19
0S
0T
0J
0&
#935000
1#
09
1S
1T
1J
1&
1a
0[
1k
0i
1X
1B
0C
1(
0)
0n
1m
1e
0I
1G
0M
1L
1@
0*
1,
03
12
10
#940000
0#
19
0S
0T
0J
0&
#945000
1#
09
1S
1T
1J
1&
1[
0h
0b
0_
0X
1C
1)
0m
1l
0e
0c
0`
1F
0L
1K
0@
1-
02
11
00
#950000
0#
19
0S
0T
0J
0&
#955000
1#
09
1S
1T
1J
1&
0d
0a
0[
0s
1j
1i
1h
0]
1b
1X
0A
0B
0C
0'
0(
0)
0l
1e
1R
0H
0G
0F
0K
1@
18
0+
0,
0-
01
10
#960000
0#
19
0S
0T
0J
0&
#965000
1#
09
1S
1T
1J
1&
1[
1s
0g
1_
0X
1C
1)
1r
1f
0e
1`
0R
1E
1Q
1D
0@
08
1.
17
1/
00
#970000
0#
19
0S
0T
0J
0&
#975000
1#
09
1S
1T
1J
1&
1a
0[
0k
0h
1X
1B
0C
1(
0)
0r
1q
0f
1I
1F
0Q
1P
0D
1*
1-
07
16
0/
#980000
0#
19
0S
0T
0J
0&
#985000
1#
09
1S
1T
1J
1&
1[
1k
0b
0_
0X
1C
1)
0q
1p
1f
1e
1c
0`
0I
0P
1O
1D
1@
0*
06
15
1/
10
#990000
0#
19
0S
0T
0J
0&
#995000
1#
09
1S
1T
1J
1&
1d
0a
0[
1h
1g
1]
1b
1X
1A
0B
0C
1'
0(
0)
0p
1o
0f
0e
0F
0E
0O
1N
0D
0@
0-
0.
05
14
0/
00
