quartus/simulation/qsim/jpd_fsm.msim.vcd
$comment
	File created using the following command:
		vcd file jpd_fsm.msim.vcd -direction
$end
$date
	Mon Apr 03 00:29:50 2023
$end
$version
	ModelSim Version 10.1d
$end
$timescale
	1ps
$end
$scope module jpd_fsm_vlg_vec_tst $end
$var reg 1 ! ck $end
$var reg 1 " inicio $end
$var reg 1 # x $end
$var reg 1 $ y $end
$var wire 1 % e [1] $end
$var wire 1 & e [0] $end
$var wire 1 ' p [1] $end
$var wire 1 ( p [0] $end
$var wire 1 ) R $end
$var wire 1 * s [2] $end
$var wire 1 + s [1] $end
$var wire 1 , s [0] $end
$var wire 1 - sampler $end
$scope module i1 $end
$var wire 1 . gnd $end
$var wire 1 / vcc $end
$var wire 1 0 unknown $end
$var tri1 1 1 devclrn $end
$var tri1 1 2 devpor $end
$var tri1 1 3 devoe $end
$var wire 1 4 R~output_o $end
$var wire 1 5 e[1]~output_o $end
$var wire 1 6 e[0]~output_o $end
$var wire 1 7 p[1]~output_o $end
$var wire 1 8 p[0]~output_o $end
$var wire 1 9 s[2]~output_o $end
$var wire 1 : s[1]~output_o $end
$var wire 1 ; s[0]~output_o $end
$var wire 1 < y~input_o $end
$var wire 1 = x~input_o $end
$var wire 1 > ck~input_o $end
$var wire 1 ? ck~inputclkctrl_outclk $end
$var wire 1 @ inst6~0_combout $end
$var wire 1 A inst7~0_combout $end
$var wire 1 B inicio~input_o $end
$var wire 1 C inicio~inputclkctrl_outclk $end
$var wire 1 D inst7~q $end
$var wire 1 E inst15~0_combout $end
$var wire 1 F inst16~q $end
$var wire 1 G inst21~0_combout $end
$var wire 1 H inst5~0_combout $end
$upscope $end
$upscope $end
$enddefinitions $end
#0
$dumpvars
0!
1"
0#
0$
0&
1%
1(
1'
0)
1,
1+
0*
x-
0.
1/
x0
11
12
13
04
15
06
17
18
09
1:
1;
0<
0=
0>
0?
1@
0A
1B
1C
0D
1E
0F
0G
1H
$end
#5000
1!
1>
1?
0-
#10000
0"
1#
0!
0B
1=
0>
0C
0?
1-
0@
1A
07
0'
#15000
1!
1>
1?
0-
1F
1D
16
19
05
0:
1&
1*
0%
0+
0H
1@
0A
0;
17
0,
1'
#20000
1$
0#
0!
1<
0=
0>
0?
1-
0E
08
0(
#25000
1!
1>
1?
0-
0F
0D
06
09
15
1:
0&
0*
1%
1+
1H
1E
1;
18
1,
1(
#30000
1#
0!
1=
0>
0?
1-
0@
1A
07
0'
#35000
1!
1>
1?
0-
1F
1D
16
19
05
0:
1&
1*
0%
0+
0H
1G
0E
0;
14
08
0,
1)
0(
#40000
0$
0#
0!
0<
0=
0>
0?
1-
0G
1E
04
18
0)
1(
#45000
1!
1>
1?
0-
#50000
1#
0!
1=
0>
0?
1-
1@
0A
17
1'
#55000
1!
1>
1?
0-
0D
09
15
1:
0*
1%
1+
1G
0E
0@
1A
14
08
07
1)
0(
0'
#60000
1$
0#
0!
1<
0=
0>
0?
1-
#65000
1!
1>
1?
0-
0F
1D
06
19
05
0:
0&
1*
0%
0+
1E
18
1(
#70000
1#
0!
1=
0>
0?
1-
#75000
1!
1>
1?
0-
1F
16
1&
0E
08
0(
#80000
0$
0#
0!
0<
0=
0>
0?
1-
0G
1E
04
18
0)
1(
#85000
1!
1>
1?
0-
#90000
1#
0!
1=
0>
0?
1-
1@
0A
17
1'
#95000
1!
1>
1?
0-
0D
09
15
1:
0*
1%
1+
1G
0E
0@
1A
14
08
07
1)
0(
0'
#100000
1$
0#
0!
1<
0=
0>
0?
1-
#105000
1!
1>
1?
0-
0F
1D
06
19
05
0:
0&
1*
0%
0+
1E
18
1(
#110000
1#
0!
1=
0>
0?
1-
#115000
1!
1>
1?
0-
1F
16
1&
0E
08
0(
#120000
0$
0#
0!
0<
0=
0>
0?
1-
0G
1E
04
18
0)
1(
#125000
1!
1>
1?
0-
#130000
1#
0!
1=
0>
0?
1-
1@
0A
17
1'
#135000
1!
1>
1?
0-
0D
09
15
1:
0*
1%
1+
1G
0E
0@
1A
14
08
07
1)
0(
0'
#140000
1$
0#
0!
1<
0=
0>
0?
1-
#145000
1!
1>
1?
0-
0F
1D
06
19
05
0:
0&
1*
0%
0+
1E
18
1(
#150000
1#
0!
1=
0>
0?
1-
#155000
1!
1>
1?
0-
1F
16
1&
0E
08
0(
#160000
0$
0#
0!
0<
0=
0>
0?
1-
0G
1E
04
18
0)
1(
#165000
1!
1>
1?
0-
#170000
1#
0!
1=
0>
0?
1-
1@
0A
17
1'
#175000
1!
1>
1?
0-
0D
09
15
1:
0*
1%
1+
1G
0E
0@
1A
14
08
07
1)
0(
0'
#180000
1$
0#
0!
1<
0=
0>
0?
1-
#185000
1!
1>
1?
0-
0F
1D
06
19
05
0:
0&
1*
0%
0+
1E
18
1(
#190000
1#
0!
1=
0>
0?
1-
#195000
1!
1>
1?
0-
1F
16
1&
0E
08
0(
#200000
0$
0#
0!
0<
0=
0>
0?
1-
0G
1E
04
18
0)
1(
#205000
1!
1>
1?
0-
#210000
1#
0!
1=
0>
0?
1-
1@
0A
17
1'
#215000
1!
1>
1?
0-
0D
09
15
1:
0*
1%
1+
1G
0E
0@
1A
14
08
07
1)
0(
0'
#220000
1$
0#
0!
1<
0=
0>
0?
1-
#225000
1!
1>
1?
0-
0F
1D
06
19
05
0:
0&
1*
0%
0+
1E
18
1(
#230000
1#
0!
1=
0>
0?
1-
#235000
1!
1>
1?
0-
1F
16
1&
0E
08
0(
#240000
0$
0#
0!
0<
0=
0>
0?
1-
0G
1E
04
18
0)
1(
#245000
1!
1>
1?
0-
#250000
1#
0!
1=
0>
0?
1-
1@
0A
17
1'
#255000
1!
1>
1?
0-
0D
09
15
1:
0*
1%
1+
1G
0E
0@
1A
14
08
07
1)
0(
0'
#260000
1$
0#
0!
1<
0=
0>
0?
1-
#265000
1!
1>
1?
0-
0F
1D
06
19
05
0:
0&
1*
0%
0+
1E
18
1(
#270000
1#
0!
1=
0>
0?
1-
#275000
1!
1>
1?
0-
1F
16
1&
0E
08
0(
#280000
0$
0#
0!
0<
0=
0>
0?
1-
0G
1E
04
18
0)
1(
#285000
1!
1>
1?
0-
#290000
1#
0!
1=
0>
0?
1-
1@
0A
17
1'
#295000
1!
1>
1?
0-
0D
09
15
1:
0*
1%
1+
1G
0E
0@
1A
14
08
07
1)
0(
0'
#300000
1$
0#
0!
1<
0=
0>
0?
1-
#305000
1!
1>
1?
0-
0F
1D
06
19
05
0:
0&
1*
0%
0+
1E
18
1(
#310000
1#
0!
1=
0>
0?
1-
#315000
1!
1>
1?
0-
1F
16
1&
0E
08
0(
#320000
0$
0#
0!
0<
0=
0>
0?
1-
0G
1E
04
18
0)
1(
#325000
1!
1>
1?
0-
#330000
1#
0!
1=
0>
0?
1-
1@
0A
17
1'
#335000
1!
1>
1?
0-
0D
09
15
1:
0*
1%
1+
1G
0E
0@
1A
14
08
07
1)
0(
0'
#340000
1$
0#
0!
1<
0=
0>
0?
1-
#345000
1!
1>
1?
0-
0F
1D
06
19
05
0:
0&
1*
0%
0+
1E
18
1(
#350000
1#
0!
1=
0>
0?
1-
#355000
1!
1>
1?
0-
1F
16
1&
0E
08
0(
#360000
0$
0#
0!
0<
0=
0>
0?
1-
0G
1E
04
18
0)
1(
#365000
1!
1>
1?
0-
#370000
1#
0!
1=
0>
0?
1-
1@
0A
17
1'
#375000
1!
1>
1?
0-
0D
09
15
1:
0*
1%
1+
1G
0E
0@
1A
14
08
07
1)
0(
0'
#380000
1$
0#
0!
1<
0=
0>
0?
1-
#385000
1!
1>
1?
0-
0F
1D
06
19
05
0:
0&
1*
0%
0+
1E
18
1(
#390000
1#
0!
1=
0>
0?
1-
#395000
1!
1>
1?
0-
1F
16
1&
0E
08
0(
#400000
0$
0#
0!
0<
0=
0>
0?
1-
0G
1E
04
18
0)
1(
#405000
1!
1>
1?
0-
#410000
1#
0!
1=
0>
0?
1-
1@
0A
17
1'
#415000
1!
1>
1?
0-
0D
09
15
1:
0*
1%
1+
1G
0E
0@
1A
14
08
07
1)
0(
0'
#420000
1$
0#
0!
1<
0=
0>
0?
1-
#425000
1!
1>
1?
0-
0F
1D
06
19
05
0:
0&
1*
0%
0+
1E
18
1(
#430000
1#
0!
1=
0>
0?
1-
#435000
1!
1>
1?
0-
1F
16
1&
0E
08
0(
#440000
0$
0#
0!
0<
0=
0>
0?
1-
0G
1E
04
18
0)
1(
#445000
1!
1>
1?
0-
#450000
1#
0!
1=
0>
0?
1-
1@
0A
17
1'
#455000
1!
1>
1?
0-
0D
09
15
1:
0*
1%
1+
1G
0E
0@
1A
14
08
07
1)
0(
0'
#460000
1$
0#
0!
1<
0=
0>
0?
1-
#465000
1!
1>
1?
0-
0F
1D
06
19
05
0:
0&
1*
0%
0+
1E
18
1(
#470000
1#
0!
1=
0>
0?
1-
#475000
1!
1>
1?
0-
1F
16
1&
0E
08
0(
#480000
0$
0#
0!
0<
0=
0>
0?
1-
0G
1E
04
18
0)
1(
#485000
1!
1>
1?
0-
#490000
1#
0!
1=
0>
0?
1-
1@
0A
17
1'
#495000
1!
1>
1?
0-
0D
09
15
1:
0*
1%
1+
1G
0E
0@
1A
14
08
07
1)
0(
0'
#500000
1$
0#
0!
1<
0=
0>
0?
1-
#505000
1!
1>
1?
0-
0F
1D
06
19
05
0:
0&
1*
0%
0+
1E
18
1(
#510000
1#
0!
1=
0>
0?
1-
#515000
1!
1>
1?
0-
1F
16
1&
0E
08
0(
#520000
0$
0#
0!
0<
0=
0>
0?
1-
0G
1E
04
18
0)
1(
#525000
1!
1>
1?
0-
#530000
1#
0!
1=
0>
0?
1-
1@
0A
17
1'
#535000
1!
1>
1?
0-
0D
09
15
1:
0*
1%
1+
1G
0E
0@
1A
14
08
07
1)
0(
0'
#540000
1$
0#
0!
1<
0=
0>
0?
1-
#545000
1!
1>
1?
0-
0F
1D
06
19
05
0:
0&
1*
0%
0+
1E
18
1(
#550000
1#
0!
1=
0>
0?
1-
#555000
1!
1>
1?
0-
1F
16
1&
0E
08
0(
#560000
0$
0#
0!
0<
0=
0>
0?
1-
0G
1E
04
18
0)
1(
#565000
1!
1>
1?
0-
#570000
1#
0!
1=
0>
0?
1-
1@
0A
17
1'
#575000
1!
1>
1?
0-
0D
09
15
1:
0*
1%
1+
1G
0E
0@
1A
14
08
07
1)
0(
0'
#580000
1$
0#
0!
1<
0=
0>
0?
1-
#585000
1!
1>
1?
0-
0F
1D
06
19
05
0:
0&
1*
0%
0+
1E
18
1(
#590000
1#
0!
1=
0>
0?
1-
#595000
1!
1>
1?
0-
1F
16
1&
0E
08
0(
#600000
0$
0#
0!
0<
0=
0>
0?
1-
0G
1E
04
18
0)
1(
#605000
1!
1>
1?
0-
#610000
1#
0!
1=
0>
0?
1-
1@
0A
17
1'
#615000
1!
1>
1?
0-
0D
09
15
1:
0*
1%
1+
1G
0E
0@
1A
14
08
07
1)
0(
0'
#620000
1$
0#
0!
1<
0=
0>
0?
1-
#625000
1!
1>
1?
0-
0F
1D
06
19
05
0:
0&
1*
0%
0+
1E
18
1(
#630000
1#
0!
1=
0>
0?
1-
#635000
1!
1>
1?
0-
1F
16
1&
0E
08
0(
#640000
0$
0#
0!
0<
0=
0>
0?
1-
0G
1E
04
18
0)
1(
#645000
1!
1>
1?
0-
#650000
1#
0!
1=
0>
0?
1-
1@
0A
17
1'
#655000
1!
1>
1?
0-
0D
09
15
1:
0*
1%
1+
1G
0E
0@
1A
14
08
07
1)
0(
0'
#660000
1$
0#
0!
1<
0=
0>
0?
1-
#665000
1!
1>
1?
0-
0F
1D
06
19
05
0:
0&
1*
0%
0+
1E
18
1(
#670000
1#
0!
1=
0>
0?
1-
#675000
1!
1>
1?
0-
1F
16
1&
0E
08
0(
#680000
0$
0#
0!
0<
0=
0>
0?
1-
0G
1E
04
18
0)
1(
#685000
1!
1>
1?
0-
#690000
1#
0!
1=
0>
0?
1-
1@
0A
17
1'
#695000
1!
1>
1?
0-
0D
09
15
1:
0*
1%
1+
1G
0E
0@
1A
14
08
07
1)
0(
0'
#700000
1$
0#
0!
1<
0=
0>
0?
1-
#705000
1!
1>
1?
0-
0F
1D
06
19
05
0:
0&
1*
0%
0+
1E
18
1(
#710000
1#
0!
1=
0>
0?
1-
#715000
1!
1>
1?
0-
1F
16
1&
0E
08
0(
#720000
0$
0#
0!
0<
0=
0>
0?
1-
0G
1E
04
18
0)
1(
#725000
1!
1>
1?
0-
#730000
1#
0!
1=
0>
0?
1-
1@
0A
17
1'
#735000
1!
1>
1?
0-
0D
09
15
1:
0*
1%
1+
1G
0E
0@
1A
14
08
07
1)
0(
0'
#740000
1$
0#
0!
1<
0=
0>
0?
1-
#745000
1!
1>
1?
0-
0F
1D
06
19
05
0:
0&
1*
0%
0+
1E
18
1(
#750000
1#
0!
1=
0>
0?
1-
#755000
1!
1>
1?
0-
1F
16
1&
0E
08
0(
#760000
0$
0#
0!
0<
0=
0>
0?
1-
0G
1E
04
18
0)
1(
#765000
1!
1>
1?
0-
#770000
1#
0!
1=
0>
0?
1-
1@
0A
17
1'
#775000
1!
1>
1?
0-
0D
09
15
1:
0*
1%
1+
1G
0E
0@
1A
14
08
07
1)
0(
0'
#780000
1$
0#
0!
1<
0=
0>
0?
1-
#785000
1!
1>
1?
0-
0F
1D
06
19
05
0:
0&
1*
0%
0+
1E
18
1(
#790000
1#
0!
1=
0>
0?
1-
#795000
1!
1>
1?
0-
1F
16
1&
0E
08
0(
#800000
0$
0#
0!
0<
0=
0>
0?
1-
0G
1E
04
18
0)
1(
#805000
1!
1>
1?
0-
#810000
1#
0!
1=
0>
0?
1-
1@
0A
17
1'
#815000
1!
1>
1?
0-
0D
09
15
1:
0*
1%
1+
1G
0E
0@
1A
14
08
07
1)
0(
0'
#820000
1$
0#
0!
1<
0=
0>
0?
1-
#825000
1!
1>
1?
0-
0F
1D
06
19
05
0:
0&
1*
0%
0+
1E
18
1(
#830000
1#
0!
1=
0>
0?
1-
#835000
1!
1>
1?
0-
1F
16
1&
0E
08
0(
#840000
0$
0#
0!
0<
0=
0>
0?
1-
0G
1E
04
18
0)
1(
#845000
1!
1>
1?
0-
#850000
1#
0!
1=
0>
0?
1-
1@
0A
17
1'
#855000
1!
1>
1?
0-
0D
09
15
1:
0*
1%
1+
1G
0E
0@
1A
14
08
07
1)
0(
0'
#860000
1$
0#
0!
1<
0=
0>
0?
1-
#865000
1!
1>
1?
0-
0F
1D
06
19
05
0:
0&
1*
0%
0+
1E
18
1(
#870000
1#
0!
1=
0>
0?
1-
#875000
1!
1>
1?
0-
1F
16
1&
0E
08
0(
#880000
0$
0#
0!
0<
0=
0>
0?
1-
0G
1E
04
18
0)
1(
#885000
1!
1>
1?
0-
#890000
1#
0!
1=
0>
0?
1-
1@
0A
17
1'
#895000
1!
1>
1?
0-
0D
09
15
1:
0*
1%
1+
1G
0E
0@
1A
14
08
07
1)
0(
0'
#900000
1$
0#
0!
1<
0=
0>
0?
1-
#905000
1!
1>
1?
0-
0F
1D
06
19
05
0:
0&
1*
0%
0+
1E
18
1(
#910000
1#
0!
1=
0>
0?
1-
#915000
1!
1>
1?
0-
1F
16
1&
0E
08
0(
#920000
0$
0#
0!
0<
0=
0>
0?
1-
0G
1E
04
18
0)
1(
#925000
1!
1>
1?
0-
#930000
1#
0!
1=
0>
0?
1-
1@
0A
17
1'
#935000
1!
1>
1?
0-
0D
09
15
1:
0*
1%
1+
1G
0E
0@
1A
14
08
07
1)
0(
0'
#940000
1$
0#
0!
1<
0=
0>
0?
1-
#945000
1!
1>
1?
0-
0F
1D
06
19
05
0:
0&
1*
0%
0+
1E
18
1(
#950000
1#
0!
1=
0>
0?
1-
#955000
1!
1>
1?
0-
1F
16
1&
0E
08
0(
#960000
0$
0#
0!
0<
0=
0>
0?
1-
0G
1E
04
18
0)
1(
#965000
1!
1>
1?
0-
#970000
1#
0!
1=
0>
0?
1-
1@
0A
17
1'
#975000
1!
1>
1?
0-
0D
09
15
1:
0*
1%
1+
1G
0E
0@
1A
14
08
07
1)
0(
0'
#980000
1$
0#
0!
1<
0=
0>
0?
1-
#985000
1!
1>
1?
0-
0F
1D
06
19
05
0:
0&
1*
0%
0+
1E
18
1(
#990000
1#
0!
1=
0>
0?
1-
#995000
1!
1>
1?
0-
1F
16
1&
0E
08
0(
