quartus/simulation/qsim/jpd_control.msim.vcd
$comment
	File created using the following command:
		vcd file jpd_control.msim.vcd -direction
$end
$date
	Sun Apr 02 23:44:37 2023
$end
$version
	ModelSim Version 10.1d
$end
$timescale
	1ps
$end
$scope module jpd_control_vlg_vec_tst $end
$var reg 16 ! c [15:0] $end
$var reg 1 " ck $end
$var reg 1 # N $end
$var reg 1 $ rst $end
$var reg 1 % Z $end
$var wire 1 & cg_AC $end
$var wire 1 ' cg_PC $end
$var wire 1 ( cg_RDM $end
$var wire 1 ) cg_REM $end
$var wire 1 * cg_RI $end
$var wire 1 + inc_PC $end
$var wire 1 , MxREM $end
$var wire 1 - q [2] $end
$var wire 1 . q [1] $end
$var wire 1 / q [0] $end
$var wire 1 0 T [7] $end
$var wire 1 1 T [6] $end
$var wire 1 2 T [5] $end
$var wire 1 3 T [4] $end
$var wire 1 4 T [3] $end
$var wire 1 5 T [2] $end
$var wire 1 6 T [1] $end
$var wire 1 7 T [0] $end
$var wire 1 8 sampler $end
$scope module i1 $end
$var wire 1 9 gnd $end
$var wire 1 : vcc $end
$var wire 1 ; unknown $end
$var tri1 1 < devclrn $end
$var tri1 1 = devpor $end
$var tri1 1 > devoe $end
$var wire 1 ? c[14]~input_o $end
$var wire 1 @ c[13]~input_o $end
$var wire 1 A c[12]~input_o $end
$var wire 1 B c[11]~input_o $end
$var wire 1 C c[7]~input_o $end
$var wire 1 D c[1]~input_o $end
$var wire 1 E cg_RI~output_o $end
$var wire 1 F T[7]~output_o $end
$var wire 1 G T[6]~output_o $end
$var wire 1 H T[5]~output_o $end
$var wire 1 I T[4]~output_o $end
$var wire 1 J T[3]~output_o $end
$var wire 1 K T[2]~output_o $end
$var wire 1 L T[1]~output_o $end
$var wire 1 M T[0]~output_o $end
$var wire 1 N cg_AC~output_o $end
$var wire 1 O inc_PC~output_o $end
$var wire 1 P cg_REM~output_o $end
$var wire 1 Q cg_RDM~output_o $end
$var wire 1 R cg_PC~output_o $end
$var wire 1 S MxREM~output_o $end
$var wire 1 T q[2]~output_o $end
$var wire 1 U q[1]~output_o $end
$var wire 1 V q[0]~output_o $end
$var wire 1 W ck~input_o $end
$var wire 1 X ck~inputclkctrl_outclk $end
$var wire 1 Y c[6]~input_o $end
$var wire 1 Z c[10]~input_o $end
$var wire 1 [ Z~input_o $end
$var wire 1 \ c[9]~input_o $end
$var wire 1 ] N~input_o $end
$var wire 1 ^ inst20~2_combout $end
$var wire 1 _ inst4|inst1|inst3~5_combout $end
$var wire 1 ` c[0]~input_o $end
$var wire 1 a inst45|inst98~combout $end
$var wire 1 b inst45|inst95~0_combout $end
$var wire 1 c inst4|inst14|inst6|inst6|inst7~combout $end
$var wire 1 d rst~input_o $end
$var wire 1 e rst~inputclkctrl_outclk $end
$var wire 1 f inst4|inst14|inst6|inst~q $end
$var wire 1 g inst4|inst14|inst2|inst4~combout $end
$var wire 1 h inst4|inst14|inst2|inst6|inst7~combout $end
$var wire 1 i inst4|inst14|inst2|inst~q $end
$var wire 1 j c[15]~input_o $end
$var wire 1 k c[8]~input_o $end
$var wire 1 l inst30~0_combout $end
$var wire 1 m inst45|inst95~1_combout $end
$var wire 1 n inst45|inst95~2_combout $end
$var wire 1 o inst4|inst14|inst1|inst6|inst7~combout $end
$var wire 1 p inst4|inst14|inst1|inst~q $end
$var wire 1 q inst4|inst1|inst3~0_combout $end
$var wire 1 r inst4|inst1|inst3~1_combout $end
$var wire 1 s inst4|inst1|inst3~2_combout $end
$var wire 1 t inst4|inst1|inst3~3_combout $end
$var wire 1 u inst4|inst1|inst3~4_combout $end
$var wire 1 v inst4|inst1|inst3~6_combout $end
$var wire 1 w inst4|inst1|inst7~combout $end
$var wire 1 x c[5]~input_o $end
$var wire 1 y c[4]~input_o $end
$var wire 1 z c[2]~input_o $end
$var wire 1 { c[3]~input_o $end
$var wire 1 | inst15~0_combout $end
$var wire 1 } inst18~combout $end
$var wire 1 ~ inst20~3_combout $end
$var wire 1 !! inst20~4_combout $end
$var wire 1 "! inst33~combout $end
$var wire 1 #! inst28~combout $end
$var wire 1 $! inst39~combout $end
$var wire 1 %! inst34~combout $end
$var wire 1 &! inst44~0_combout $end
$var wire 1 '! inst29~combout $end
$upscope $end
$upscope $end
$enddefinitions $end
#0
$dumpvars
b10000000000 !
0"
0#
1$
1%
0&
0'
1(
0)
0*
1+
0,
0/
0.
0-
17
06
05
04
03
02
01
00
x8
09
1:
x;
1<
1=
1>
0?
0@
0A
0B
0C
0D
0E
0F
0G
0H
0I
0J
0K
0L
1M
0N
1O
0P
1Q
0R
0S
0T
0U
0V
0W
0X
0Y
1Z
1[
0\
0]
1^
0_
0`
0a
0b
0c
1d
1e
0f
0g
0h
0i
0j
0k
0l
1m
0n
1o
0p
0q
0r
0s
0t
0u
0v
0w
0x
0y
0z
0{
0|
0}
0~
1!!
0"!
0#!
0$!
1%!
0&!
0'!
$end
#5000
1"
1W
1X
08
#10000
0$
0"
0d
0W
0e
0X
18
#15000
1"
1W
1X
08
1p
1w
0o
1c
1V
1/
0!!
1q
0M
0O
1L
1E
07
0+
16
1*
0%!
0Q
0(
#20000
0"
0W
0X
18
#25000
1"
1W
1X
08
0p
1f
1o
0m
0V
1U
0/
1.
1v
0q
1"!
1K
0L
0E
15
06
0*
1#!
1P
1)
#30000
0"
0W
0X
18
#35000
1"
1W
1X
08
1p
0o
1g
0c
1V
1/
0v
1_
1h
0"!
1$!
0K
1J
05
14
0#!
1%!
0P
1Q
0)
1(
#40000
0"
0W
0X
18
#45000
1"
1W
1X
08
0p
1i
0f
1o
1m
0V
1T
0U
0/
1-
0.
1u
0_
0$!
1I
0J
13
04
1&!
1R
1'
0%!
0Q
0(
#50000
0"
0W
0X
18
#55000
1"
1W
1X
08
1p
0o
1n
1c
1V
1/
0u
1t
0h
0c
0I
1H
03
12
0&!
0R
0'
#60000
0"
0W
0X
18
#65000
1"
1W
1X
08
0p
0i
0w
0n
0g
0V
0T
0/
0-
1!!
0t
1o
1M
1O
0H
17
1+
02
1%!
1Q
1(
#70000
0"
0W
0X
18
#75000
1"
1W
1X
08
1p
1w
0o
1c
1V
1/
0!!
1q
0M
0O
1L
1E
07
0+
16
1*
0%!
0Q
0(
#80000
0"
0W
0X
18
#85000
1"
1W
1X
08
0p
1f
1o
0m
0V
1U
0/
1.
1v
0q
1"!
1K
0L
0E
15
06
0*
1#!
1P
1)
#90000
0"
0W
0X
18
#95000
1"
1W
1X
08
1p
0o
1g
0c
1V
1/
0v
1_
1h
0"!
1$!
0K
1J
05
14
0#!
1%!
0P
1Q
0)
1(
#100000
0"
0W
0X
18
#105000
1"
1W
1X
08
0p
1i
0f
1o
1m
0V
1T
0U
0/
1-
0.
1u
0_
0$!
1I
0J
13
04
1&!
1R
1'
0%!
0Q
0(
#110000
0"
0W
0X
18
#115000
1"
1W
1X
08
1p
0o
1n
1c
1V
1/
0u
1t
0h
0c
0I
1H
03
12
0&!
0R
0'
#120000
0"
0W
0X
18
#125000
1"
1W
1X
08
0p
0i
0w
0n
0g
0V
0T
0/
0-
1!!
0t
1o
1M
1O
0H
17
1+
02
1%!
1Q
1(
#130000
0"
0W
0X
18
#135000
1"
1W
1X
08
1p
1w
0o
1c
1V
1/
0!!
1q
0M
0O
1L
1E
07
0+
16
1*
0%!
0Q
0(
#140000
0"
0W
0X
18
#145000
1"
1W
1X
08
0p
1f
1o
0m
0V
1U
0/
1.
1v
0q
1"!
1K
0L
0E
15
06
0*
1#!
1P
1)
#150000
0"
0W
0X
18
#155000
1"
1W
1X
08
1p
0o
1g
0c
1V
1/
0v
1_
1h
0"!
1$!
0K
1J
05
14
0#!
1%!
0P
1Q
0)
1(
#160000
0"
0W
0X
18
#165000
1"
1W
1X
08
0p
1i
0f
1o
1m
0V
1T
0U
0/
1-
0.
1u
0_
0$!
1I
0J
13
04
1&!
1R
1'
0%!
0Q
0(
#170000
0"
0W
0X
18
#175000
1"
1W
1X
08
1p
0o
1n
1c
1V
1/
0u
1t
0h
0c
0I
1H
03
12
0&!
0R
0'
#180000
0"
0W
0X
18
#185000
1"
1W
1X
08
0p
0i
0w
0n
0g
0V
0T
0/
0-
1!!
0t
1o
1M
1O
0H
17
1+
02
1%!
1Q
1(
#190000
0"
0W
0X
18
#195000
1"
1W
1X
08
1p
1w
0o
1c
1V
1/
0!!
1q
0M
0O
1L
1E
07
0+
16
1*
0%!
0Q
0(
#200000
0"
0W
0X
18
#205000
1"
1W
1X
08
0p
1f
1o
0m
0V
1U
0/
1.
1v
0q
1"!
1K
0L
0E
15
06
0*
1#!
1P
1)
#210000
0"
0W
0X
18
#215000
1"
1W
1X
08
1p
0o
1g
0c
1V
1/
0v
1_
1h
0"!
1$!
0K
1J
05
14
0#!
1%!
0P
1Q
0)
1(
#220000
0"
0W
0X
18
#225000
1"
1W
1X
08
0p
1i
0f
1o
1m
0V
1T
0U
0/
1-
0.
1u
0_
0$!
1I
0J
13
04
1&!
1R
1'
0%!
0Q
0(
#230000
0"
0W
0X
18
#235000
1"
1W
1X
08
1p
0o
1n
1c
1V
1/
0u
1t
0h
0c
0I
1H
03
12
0&!
0R
0'
#240000
0"
0W
0X
18
#245000
1"
1W
1X
08
0p
0i
0w
0n
0g
0V
0T
0/
0-
1!!
0t
1o
1M
1O
0H
17
1+
02
1%!
1Q
1(
#250000
0"
0W
0X
18
#255000
1"
1W
1X
08
1p
1w
0o
1c
1V
1/
0!!
1q
0M
0O
1L
1E
07
0+
16
1*
0%!
0Q
0(
#260000
0"
0W
0X
18
#265000
1"
1W
1X
08
0p
1f
1o
0m
0V
1U
0/
1.
1v
0q
1"!
1K
0L
0E
15
06
0*
1#!
1P
1)
#270000
0"
0W
0X
18
#275000
1"
1W
1X
08
1p
0o
1g
0c
1V
1/
0v
1_
1h
0"!
1$!
0K
1J
05
14
0#!
1%!
0P
1Q
0)
1(
#280000
0"
0W
0X
18
#285000
1"
1W
1X
08
0p
1i
0f
1o
1m
0V
1T
0U
0/
1-
0.
1u
0_
0$!
1I
0J
13
04
1&!
1R
1'
0%!
0Q
0(
#290000
0"
0W
0X
18
#295000
1"
1W
1X
08
1p
0o
1n
1c
1V
1/
0u
1t
0h
0c
0I
1H
03
12
0&!
0R
0'
#300000
0"
0W
0X
18
#305000
1"
1W
1X
08
0p
0i
0w
0n
0g
0V
0T
0/
0-
1!!
0t
1o
1M
1O
0H
17
1+
02
1%!
1Q
1(
#310000
0"
0W
0X
18
#315000
1"
1W
1X
08
1p
1w
0o
1c
1V
1/
0!!
1q
0M
0O
1L
1E
07
0+
16
1*
0%!
0Q
0(
#320000
0"
0W
0X
18
#325000
1"
1W
1X
08
0p
1f
1o
0m
0V
1U
0/
1.
1v
0q
1"!
1K
0L
0E
15
06
0*
1#!
1P
1)
#330000
0"
0W
0X
18
#335000
1"
1W
1X
08
1p
0o
1g
0c
1V
1/
0v
1_
1h
0"!
1$!
0K
1J
05
14
0#!
1%!
0P
1Q
0)
1(
#340000
0"
0W
0X
18
#345000
1"
1W
1X
08
0p
1i
0f
1o
1m
0V
1T
0U
0/
1-
0.
1u
0_
0$!
1I
0J
13
04
1&!
1R
1'
0%!
0Q
0(
#350000
0"
0W
0X
18
#355000
1"
1W
1X
08
1p
0o
1n
1c
1V
1/
0u
1t
0h
0c
0I
1H
03
12
0&!
0R
0'
#360000
0"
0W
0X
18
#365000
1"
1W
1X
08
0p
0i
0w
0n
0g
0V
0T
0/
0-
1!!
0t
1o
1M
1O
0H
17
1+
02
1%!
1Q
1(
#370000
0"
0W
0X
18
#375000
1"
1W
1X
08
1p
1w
0o
1c
1V
1/
0!!
1q
0M
0O
1L
1E
07
0+
16
1*
0%!
0Q
0(
#380000
0"
0W
0X
18
#385000
1"
1W
1X
08
0p
1f
1o
0m
0V
1U
0/
1.
1v
0q
1"!
1K
0L
0E
15
06
0*
1#!
1P
1)
#390000
0"
0W
0X
18
#395000
1"
1W
1X
08
1p
0o
1g
0c
1V
1/
0v
1_
1h
0"!
1$!
0K
1J
05
14
0#!
1%!
0P
1Q
0)
1(
#400000
0"
0W
0X
18
#405000
1"
1W
1X
08
0p
1i
0f
1o
1m
0V
1T
0U
0/
1-
0.
1u
0_
0$!
1I
0J
13
04
1&!
1R
1'
0%!
0Q
0(
#410000
0"
0W
0X
18
#415000
1"
1W
1X
08
1p
0o
1n
1c
1V
1/
0u
1t
0h
0c
0I
1H
03
12
0&!
0R
0'
#420000
0"
0W
0X
18
#425000
1"
1W
1X
08
0p
0i
0w
0n
0g
0V
0T
0/
0-
1!!
0t
1o
1M
1O
0H
17
1+
02
1%!
1Q
1(
#430000
0"
0W
0X
18
#435000
1"
1W
1X
08
1p
1w
0o
1c
1V
1/
0!!
1q
0M
0O
1L
1E
07
0+
16
1*
0%!
0Q
0(
#440000
0"
0W
0X
18
#445000
1"
1W
1X
08
0p
1f
1o
0m
0V
1U
0/
1.
1v
0q
1"!
1K
0L
0E
15
06
0*
1#!
1P
1)
#450000
0"
0W
0X
18
#455000
1"
1W
1X
08
1p
0o
1g
0c
1V
1/
0v
1_
1h
0"!
1$!
0K
1J
05
14
0#!
1%!
0P
1Q
0)
1(
#460000
0"
0W
0X
18
#465000
1"
1W
1X
08
0p
1i
0f
1o
1m
0V
1T
0U
0/
1-
0.
1u
0_
0$!
1I
0J
13
04
1&!
1R
1'
0%!
0Q
0(
#470000
0"
0W
0X
18
#475000
1"
1W
1X
08
1p
0o
1n
1c
1V
1/
0u
1t
0h
0c
0I
1H
03
12
0&!
0R
0'
#480000
0"
0W
0X
18
#485000
1"
1W
1X
08
0p
0i
0w
0n
0g
0V
0T
0/
0-
1!!
0t
1o
1M
1O
0H
17
1+
02
1%!
1Q
1(
#490000
0"
0W
0X
18
#495000
1"
1W
1X
08
1p
1w
0o
1c
1V
1/
0!!
1q
0M
0O
1L
1E
07
0+
16
1*
0%!
0Q
0(
#500000
0"
0W
0X
18
#505000
1"
1W
1X
08
0p
1f
1o
0m
0V
1U
0/
1.
1v
0q
1"!
1K
0L
0E
15
06
0*
1#!
1P
1)
#510000
0"
0W
0X
18
#515000
1"
1W
1X
08
1p
0o
1g
0c
1V
1/
0v
1_
1h
0"!
1$!
0K
1J
05
14
0#!
1%!
0P
1Q
0)
1(
#520000
0"
0W
0X
18
#525000
1"
1W
1X
08
0p
1i
0f
1o
1m
0V
1T
0U
0/
1-
0.
1u
0_
0$!
1I
0J
13
04
1&!
1R
1'
0%!
0Q
0(
#530000
0"
0W
0X
18
#535000
1"
1W
1X
08
1p
0o
1n
1c
1V
1/
0u
1t
0h
0c
0I
1H
03
12
0&!
0R
0'
#540000
0"
0W
0X
18
#545000
1"
1W
1X
08
0p
0i
0w
0n
0g
0V
0T
0/
0-
1!!
0t
1o
1M
1O
0H
17
1+
02
1%!
1Q
1(
#550000
0"
0W
0X
18
#555000
1"
1W
1X
08
1p
1w
0o
1c
1V
1/
0!!
1q
0M
0O
1L
1E
07
0+
16
1*
0%!
0Q
0(
#560000
0"
0W
0X
18
#565000
1"
1W
1X
08
0p
1f
1o
0m
0V
1U
0/
1.
1v
0q
1"!
1K
0L
0E
15
06
0*
1#!
1P
1)
#570000
0"
0W
0X
18
#575000
1"
1W
1X
08
1p
0o
1g
0c
1V
1/
0v
1_
1h
0"!
1$!
0K
1J
05
14
0#!
1%!
0P
1Q
0)
1(
#580000
0"
0W
0X
18
#585000
1"
1W
1X
08
0p
1i
0f
1o
1m
0V
1T
0U
0/
1-
0.
1u
0_
0$!
1I
0J
13
04
1&!
1R
1'
0%!
0Q
0(
#590000
0"
0W
0X
18
#595000
1"
1W
1X
08
1p
0o
1n
1c
1V
1/
0u
1t
0h
0c
0I
1H
03
12
0&!
0R
0'
#600000
0"
0W
0X
18
#605000
1"
1W
1X
08
0p
0i
0w
0n
0g
0V
0T
0/
0-
1!!
0t
1o
1M
1O
0H
17
1+
02
1%!
1Q
1(
#610000
0"
0W
0X
18
#615000
1"
1W
1X
08
1p
1w
0o
1c
1V
1/
0!!
1q
0M
0O
1L
1E
07
0+
16
1*
0%!
0Q
0(
#620000
0"
0W
0X
18
#625000
1"
1W
1X
08
0p
1f
1o
0m
0V
1U
0/
1.
1v
0q
1"!
1K
0L
0E
15
06
0*
1#!
1P
1)
#630000
0"
0W
0X
18
#635000
1"
1W
1X
08
1p
0o
1g
0c
1V
1/
0v
1_
1h
0"!
1$!
0K
1J
05
14
0#!
1%!
0P
1Q
0)
1(
#640000
0"
0W
0X
18
#645000
1"
1W
1X
08
0p
1i
0f
1o
1m
0V
1T
0U
0/
1-
0.
1u
0_
0$!
1I
0J
13
04
1&!
1R
1'
0%!
0Q
0(
#650000
0"
0W
0X
18
#655000
1"
1W
1X
08
1p
0o
1n
1c
1V
1/
0u
1t
0h
0c
0I
1H
03
12
0&!
0R
0'
#660000
0"
0W
0X
18
#665000
1"
1W
1X
08
0p
0i
0w
0n
0g
0V
0T
0/
0-
1!!
0t
1o
1M
1O
0H
17
1+
02
1%!
1Q
1(
#670000
0"
0W
0X
18
#675000
1"
1W
1X
08
1p
1w
0o
1c
1V
1/
0!!
1q
0M
0O
1L
1E
07
0+
16
1*
0%!
0Q
0(
#680000
0"
0W
0X
18
#685000
1"
1W
1X
08
0p
1f
1o
0m
0V
1U
0/
1.
1v
0q
1"!
1K
0L
0E
15
06
0*
1#!
1P
1)
#690000
0"
0W
0X
18
#695000
1"
1W
1X
08
1p
0o
1g
0c
1V
1/
0v
1_
1h
0"!
1$!
0K
1J
05
14
0#!
1%!
0P
1Q
0)
1(
#700000
0"
0W
0X
18
#705000
1"
1W
1X
08
0p
1i
0f
1o
1m
0V
1T
0U
0/
1-
0.
1u
0_
0$!
1I
0J
13
04
1&!
1R
1'
0%!
0Q
0(
#710000
0"
0W
0X
18
#715000
1"
1W
1X
08
1p
0o
1n
1c
1V
1/
0u
1t
0h
0c
0I
1H
03
12
0&!
0R
0'
#720000
0"
0W
0X
18
#725000
1"
1W
1X
08
0p
0i
0w
0n
0g
0V
0T
0/
0-
1!!
0t
1o
1M
1O
0H
17
1+
02
1%!
1Q
1(
#730000
0"
0W
0X
18
#735000
1"
1W
1X
08
1p
1w
0o
1c
1V
1/
0!!
1q
0M
0O
1L
1E
07
0+
16
1*
0%!
0Q
0(
#740000
0"
0W
0X
18
#745000
1"
1W
1X
08
0p
1f
1o
0m
0V
1U
0/
1.
1v
0q
1"!
1K
0L
0E
15
06
0*
1#!
1P
1)
#750000
0"
0W
0X
18
#755000
1"
1W
1X
08
1p
0o
1g
0c
1V
1/
0v
1_
1h
0"!
1$!
0K
1J
05
14
0#!
1%!
0P
1Q
0)
1(
#760000
0"
0W
0X
18
#765000
1"
1W
1X
08
0p
1i
0f
1o
1m
0V
1T
0U
0/
1-
0.
1u
0_
0$!
1I
0J
13
04
1&!
1R
1'
0%!
0Q
0(
#770000
0"
0W
0X
18
#775000
1"
1W
1X
08
1p
0o
1n
1c
1V
1/
0u
1t
0h
0c
0I
1H
03
12
0&!
0R
0'
#780000
0"
0W
0X
18
#785000
1"
1W
1X
08
0p
0i
0w
0n
0g
0V
0T
0/
0-
1!!
0t
1o
1M
1O
0H
17
1+
02
1%!
1Q
1(
#790000
0"
0W
0X
18
#795000
1"
1W
1X
08
1p
1w
0o
1c
1V
1/
0!!
1q
0M
0O
1L
1E
07
0+
16
1*
0%!
0Q
0(
#800000
0"
0W
0X
18
#805000
1"
1W
1X
08
0p
1f
1o
0m
0V
1U
0/
1.
1v
0q
1"!
1K
0L
0E
15
06
0*
1#!
1P
1)
#810000
0"
0W
0X
18
#815000
1"
1W
1X
08
1p
0o
1g
0c
1V
1/
0v
1_
1h
0"!
1$!
0K
1J
05
14
0#!
1%!
0P
1Q
0)
1(
#820000
0"
0W
0X
18
#825000
1"
1W
1X
08
0p
1i
0f
1o
1m
0V
1T
0U
0/
1-
0.
1u
0_
0$!
1I
0J
13
04
1&!
1R
1'
0%!
0Q
0(
#830000
0"
0W
0X
18
#835000
1"
1W
1X
08
1p
0o
1n
1c
1V
1/
0u
1t
0h
0c
0I
1H
03
12
0&!
0R
0'
#840000
0"
0W
0X
18
#845000
1"
1W
1X
08
0p
0i
0w
0n
0g
0V
0T
0/
0-
1!!
0t
1o
1M
1O
0H
17
1+
02
1%!
1Q
1(
#850000
0"
0W
0X
18
#855000
1"
1W
1X
08
1p
1w
0o
1c
1V
1/
0!!
1q
0M
0O
1L
1E
07
0+
16
1*
0%!
0Q
0(
#860000
0"
0W
0X
18
#865000
1"
1W
1X
08
0p
1f
1o
0m
0V
1U
0/
1.
1v
0q
1"!
1K
0L
0E
15
06
0*
1#!
1P
1)
#870000
0"
0W
0X
18
#875000
1"
1W
1X
08
1p
0o
1g
0c
1V
1/
0v
1_
1h
0"!
1$!
0K
1J
05
14
0#!
1%!
0P
1Q
0)
1(
#880000
0"
0W
0X
18
#885000
1"
1W
1X
08
0p
1i
0f
1o
1m
0V
1T
0U
0/
1-
0.
1u
0_
0$!
1I
0J
13
04
1&!
1R
1'
0%!
0Q
0(
#890000
0"
0W
0X
18
#895000
1"
1W
1X
08
1p
0o
1n
1c
1V
1/
0u
1t
0h
0c
0I
1H
03
12
0&!
0R
0'
#900000
0"
0W
0X
18
#905000
1"
1W
1X
08
0p
0i
0w
0n
0g
0V
0T
0/
0-
1!!
0t
1o
1M
1O
0H
17
1+
02
1%!
1Q
1(
#910000
0"
0W
0X
18
#915000
1"
1W
1X
08
1p
1w
0o
1c
1V
1/
0!!
1q
0M
0O
1L
1E
07
0+
16
1*
0%!
0Q
0(
#920000
0"
0W
0X
18
#925000
1"
1W
1X
08
0p
1f
1o
0m
0V
1U
0/
1.
1v
0q
1"!
1K
0L
0E
15
06
0*
1#!
1P
1)
#930000
0"
0W
0X
18
#935000
1"
1W
1X
08
1p
0o
1g
0c
1V
1/
0v
1_
1h
0"!
1$!
0K
1J
05
14
0#!
1%!
0P
1Q
0)
1(
#940000
0"
0W
0X
18
#945000
1"
1W
1X
08
0p
1i
0f
1o
1m
0V
1T
0U
0/
1-
0.
1u
0_
0$!
1I
0J
13
04
1&!
1R
1'
0%!
0Q
0(
#950000
0"
0W
0X
18
#955000
1"
1W
1X
08
1p
0o
1n
1c
1V
1/
0u
1t
0h
0c
0I
1H
03
12
0&!
0R
0'
#960000
0"
0W
0X
18
#965000
1"
1W
1X
08
0p
0i
0w
0n
0g
0V
0T
0/
0-
1!!
0t
1o
1M
1O
0H
17
1+
02
1%!
1Q
1(
#970000
0"
0W
0X
18
#975000
1"
1W
1X
08
1p
1w
0o
1c
1V
1/
0!!
1q
0M
0O
1L
1E
07
0+
16
1*
0%!
0Q
0(
#980000
0"
0W
0X
18
#985000
1"
1W
1X
08
0p
1f
1o
0m
0V
1U
0/
1.
1v
0q
1"!
1K
0L
0E
15
06
0*
1#!
1P
1)
#990000
0"
0W
0X
18
#995000
1"
1W
1X
08
1p
0o
1g
0c
1V
1/
0v
1_
1h
0"!
1$!
0K
1J
05
14
0#!
1%!
0P
1Q
0)
1(
