quartus/simulation/qsim/jpd_ha.msim.vcd
$comment
	File created using the following command:
		vcd file jpd_ha.msim.vcd -direction
$end
$date
	Sat Apr 01 16:11:38 2023
$end
$version
	ModelSim Version 10.1d
$end
$timescale
	1ps
$end
$scope module jpd_ha_vlg_vec_tst $end
$var reg 1 ! a $end
$var reg 1 " b $end
$var wire 1 # co $end
$var wire 1 $ s $end
$var wire 1 % sampler $end
$scope module i1 $end
$var wire 1 & gnd $end
$var wire 1 ' vcc $end
$var wire 1 ( unknown $end
$var tri1 1 ) devclrn $end
$var tri1 1 * devpor $end
$var tri1 1 + devoe $end
$var wire 1 , s~output_o $end
$var wire 1 - co~output_o $end
$var wire 1 . a~input_o $end
$var wire 1 / b~input_o $end
$var wire 1 0 inst~combout $end
$var wire 1 1 inst1~combout $end
$upscope $end
$upscope $end
$enddefinitions $end
#0
$dumpvars
0!
0"
0#
0$
x%
0&
1'
x(
1)
1*
1+
0,
0-
0.
0/
00
01
$end
#20000
1!
1.
0%
10
1,
1$
#40000
1"
0!
1/
0.
1%
#60000
1!
1.
0%
11
00
1-
0,
1#
0$
#80000
0"
0!
0/
0.
1%
01
0-
0#
#100000
1!
1.
0%
10
1,
1$
#120000
1"
0!
1/
0.
1%
#140000
1!
1.
0%
11
00
1-
0,
1#
0$
#160000
0"
0!
0/
0.
1%
01
0-
0#
#180000
1!
1.
0%
10
1,
1$
#200000
1"
0!
1/
0.
1%
#220000
1!
1.
0%
11
00
1-
0,
1#
0$
#240000
0"
0!
0/
0.
1%
01
0-
0#
#260000
1!
1.
0%
10
1,
1$
#280000
1"
0!
1/
0.
1%
#300000
1!
1.
0%
11
00
1-
0,
1#
0$
#320000
0"
0!
0/
0.
1%
01
0-
0#
#340000
1!
1.
0%
10
1,
1$
#360000
1"
0!
1/
0.
1%
#380000
1!
1.
0%
11
00
1-
0,
1#
0$
#400000
0"
0!
0/
0.
1%
01
0-
0#
#420000
1!
1.
0%
10
1,
1$
#440000
1"
0!
1/
0.
1%
#460000
1!
1.
0%
11
00
1-
0,
1#
0$
#480000
0"
0!
0/
0.
1%
01
0-
0#
#500000
1!
1.
0%
10
1,
1$
#520000
1"
0!
1/
0.
1%
#540000
1!
1.
0%
11
00
1-
0,
1#
0$
#560000
0"
0!
0/
0.
1%
01
0-
0#
#580000
1!
1.
0%
10
1,
1$
#600000
1"
0!
1/
0.
1%
#620000
1!
1.
0%
11
00
1-
0,
1#
0$
#640000
0"
0!
0/
0.
1%
01
0-
0#
#660000
1!
1.
0%
10
1,
1$
#680000
1"
0!
1/
0.
1%
#700000
1!
1.
0%
11
00
1-
0,
1#
0$
#720000
0"
0!
0/
0.
1%
01
0-
0#
#740000
1!
1.
0%
10
1,
1$
#760000
1"
0!
1/
0.
1%
#780000
1!
1.
0%
11
00
1-
0,
1#
0$
#800000
0"
0!
0/
0.
1%
01
0-
0#
#820000
1!
1.
0%
10
1,
1$
#840000
1"
0!
1/
0.
1%
#860000
1!
1.
0%
11
00
1-
0,
1#
0$
#880000
0"
0!
0/
0.
1%
01
0-
0#
#900000
1!
1.
0%
10
1,
1$
#920000
1"
0!
1/
0.
1%
#940000
1!
1.
0%
11
00
1-
0,
1#
0$
#960000
0"
0!
0/
0.
1%
01
0-
0#
#980000
1!
1.
0%
10
1,
1$
