quartus/simulation/qsim/jpd_counter_8.msim.vcd
$comment
	File created using the following command:
		vcd file jpd_counter_8.msim.vcd -direction
$end
$date
	Mon Apr 03 08:59:29 2023
$end
$version
	ModelSim Version 10.1d
$end
$timescale
	1ps
$end
$scope module jpd_counter_8_vlg_vec_tst $end
$var reg 1 ! c0 $end
$var reg 1 " c1 $end
$var reg 1 # clock $end
$var reg 8 $ d [7:0] $end
$var reg 1 % reset $end
$var wire 1 & q [7] $end
$var wire 1 ' q [6] $end
$var wire 1 ( q [5] $end
$var wire 1 ) q [4] $end
$var wire 1 * q [3] $end
$var wire 1 + q [2] $end
$var wire 1 , q [1] $end
$var wire 1 - q [0] $end
$var wire 1 . s_and $end
$var wire 1 / s_out $end
$var wire 1 0 sampler $end
$scope module i1 $end
$var wire 1 1 gnd $end
$var wire 1 2 vcc $end
$var wire 1 3 unknown $end
$var tri1 1 4 devclrn $end
$var tri1 1 5 devpor $end
$var tri1 1 6 devoe $end
$var wire 1 7 s_out~output_o $end
$var wire 1 8 q[7]~output_o $end
$var wire 1 9 q[6]~output_o $end
$var wire 1 : q[5]~output_o $end
$var wire 1 ; q[4]~output_o $end
$var wire 1 < q[3]~output_o $end
$var wire 1 = q[2]~output_o $end
$var wire 1 > q[1]~output_o $end
$var wire 1 ? q[0]~output_o $end
$var wire 1 @ s_and~output_o $end
$var wire 1 A clock~input_o $end
$var wire 1 B clock~inputclkctrl_outclk $end
$var wire 1 C c1~input_o $end
$var wire 1 D c0~input_o $end
$var wire 1 E d[5]~input_o $end
$var wire 1 F inst8|inst6|inst10~0_combout $end
$var wire 1 G inst10|inst6|inst7~0_combout $end
$var wire 1 H d[2]~input_o $end
$var wire 1 I inst2|inst6|inst10~0_combout $end
$var wire 1 J d[1]~input_o $end
$var wire 1 K d[0]~input_o $end
$var wire 1 L inst1|inst6|inst10~0_combout $end
$var wire 1 M reset~input_o $end
$var wire 1 N reset~inputclkctrl_outclk $end
$var wire 1 O inst1|inst~q $end
$var wire 1 P inst6|inst6|inst10~0_combout $end
$var wire 1 Q inst6|inst6|inst10~1_combout $end
$var wire 1 R inst6|inst~q $end
$var wire 1 S inst2|inst4~combout $end
$var wire 1 T inst2|inst7~0_combout $end
$var wire 1 U inst2|inst6|inst8~combout $end
$var wire 1 V inst2|inst6|inst10~combout $end
$var wire 1 W inst2|inst~q $end
$var wire 1 X inst3|inst5~combout $end
$var wire 1 Y inst9|inst6|inst8~0_combout $end
$var wire 1 Z d[3]~input_o $end
$var wire 1 [ inst3|inst6|inst10~0_combout $end
$var wire 1 \ inst3|inst7~combout $end
$var wire 1 ] inst3|inst6|inst10~1_combout $end
$var wire 1 ^ inst3|inst6|inst10~combout $end
$var wire 1 _ inst3|inst~q $end
$var wire 1 ` d[4]~input_o $end
$var wire 1 a inst7|inst6|inst10~0_combout $end
$var wire 1 b inst7|inst6|inst8~combout $end
$var wire 1 c inst7|inst6|inst7~combout $end
$var wire 1 d inst7|inst6|inst10~1_combout $end
$var wire 1 e inst7|inst~q $end
$var wire 1 f inst8|inst4~combout $end
$var wire 1 g inst8|inst7~combout $end
$var wire 1 h inst8|inst6|inst8~combout $end
$var wire 1 i inst8|inst6|inst10~combout $end
$var wire 1 j inst8|inst~q $end
$var wire 1 k d[6]~input_o $end
$var wire 1 l inst9|inst5~combout $end
$var wire 1 m inst9|inst6|inst10~0_combout $end
$var wire 1 n inst9|inst6|inst8~combout $end
$var wire 1 o inst9|inst6|inst10~1_combout $end
$var wire 1 p inst9|inst~q $end
$var wire 1 q inst10|inst7~combout $end
$var wire 1 r d[7]~input_o $end
$var wire 1 s inst10|inst6|inst10~0_combout $end
$var wire 1 t inst10|inst5~0_combout $end
$var wire 1 u inst10|inst5~combout $end
$var wire 1 v inst10|inst6|inst10~1_combout $end
$var wire 1 w inst10|inst6|inst10~2_combout $end
$var wire 1 x inst10|inst~q $end
$upscope $end
$upscope $end
$enddefinitions $end
#0
$dumpvars
1!
0"
0#
b0 $
0%
0-
0,
0+
0*
0)
0(
0'
0&
0.
1/
x0
01
12
x3
14
15
16
17
08
09
0:
0;
0<
0=
0>
0?
0@
0A
0B
0C
1D
0E
0F
1G
0H
0I
0J
0K
1L
0M
0N
0O
0P
0Q
0R
0S
0T
0U
0V
0W
0X
0Y
0Z
0[
1\
0]
0^
0_
0`
0a
0b
0c
0d
0e
0f
1g
0h
0i
0j
0k
0l
0m
0n
0o
0p
1q
0r
0s
0t
0u
0v
0w
0x
$end
#500
1#
1A
1B
00
1O
1T
1P
0L
1?
1-
1Q
#1000
0#
0A
0B
10
#1500
1#
1A
1B
00
1R
0O
1L
1>
0?
1,
0-
#2000
0#
0A
0B
10
#2500
1#
1A
1B
00
1O
1S
0P
0L
1?
1-
1V
0Q
#3000
0#
0A
0B
10
#3500
1#
1A
1B
00
1W
0R
0O
0T
1L
1=
0>
0?
1+
0,
0-
#4000
0#
0A
0B
10
#4500
1#
1A
1B
00
1O
1T
1P
0L
1?
1-
1Q
#5000
0#
0A
0B
10
#5500
1#
1A
1B
00
1R
0O
1L
1>
0?
1,
0-
#6000
0#
0A
0B
10
#6500
1#
1A
1B
00
1O
1X
0S
0P
0L
1?
1-
1^
0V
0Q
#7000
0#
0A
0B
10
#7500
1#
1A
1B
00
1_
0W
0R
0O
1c
0^
0X
0T
1L
1<
0=
0>
0?
1*
0+
0,
0-
1d
0c
1^
0d
#8000
0#
0A
0B
10
#8500
1#
1A
1B
00
1O
1T
1P
0L
1?
1-
1Q
#9000
0#
0A
0B
10
#9500
1#
1A
1B
00
1R
0O
1L
1>
0?
1,
0-
#10000
0#
0A
0B
10
#10500
1#
1A
1B
00
1O
1S
0P
0L
1?
1-
1V
0Q
#11000
0#
0A
0B
10
#11500
1#
1A
1B
00
1W
0R
0O
0T
1L
1=
0>
0?
1+
0,
0-
#12000
0#
0A
0B
10
#12500
1#
1A
1B
00
1O
1T
1P
0L
1?
1-
1Q
#13000
0#
0A
0B
10
#13500
1#
1A
1B
00
1R
0O
1L
1>
0?
1,
0-
#14000
0#
0A
0B
10
#14500
1#
1A
1B
00
1O
1X
0S
0P
0L
1?
1-
1c
0^
0V
0Q
1d
#15000
0#
0A
0B
10
#15500
1#
1A
1B
00
1e
0_
0W
0R
0O
1^
0X
0T
1L
1;
0<
0=
0>
0?
1)
0*
0+
0,
0-
0^
#16000
0#
0A
0B
10
#16500
1#
1A
1B
00
1O
1T
1P
0L
1?
1-
1Q
#17000
0#
0A
0B
10
#17500
1#
1A
1B
00
1R
0O
1L
1>
0?
1,
0-
#18000
0#
0A
0B
10
#18500
1#
1A
1B
00
1O
1S
0P
0L
1?
1-
1V
0Q
#19000
0#
0A
0B
10
#19500
1#
1A
1B
00
1W
0R
0O
0T
1L
1=
0>
0?
1+
0,
0-
#20000
0#
0A
0B
10
#20500
1#
1A
1B
00
1O
1T
1P
0L
1?
1-
1Q
#21000
0#
0A
0B
10
#21500
1#
1A
1B
00
1R
0O
1L
1>
0?
1,
0-
#22000
0#
0A
0B
10
#22500
1#
1A
1B
00
1O
1X
0S
0P
0L
1?
1-
1^
0V
0Q
#23000
0#
0A
0B
10
#23500
1#
1A
1B
00
1_
0W
0R
0O
1f
0c
0^
0X
0T
1L
1<
0=
0>
0?
1*
0+
0,
0-
1i
0d
0f
1c
1^
0i
1d
#24000
0#
0A
0B
10
#24500
1#
1A
1B
00
1O
1T
1P
0L
1?
1-
1Q
#25000
0#
0A
0B
10
#25500
1#
1A
1B
00
1R
0O
1L
1>
0?
1,
0-
#26000
0#
0A
0B
10
#26500
1#
1A
1B
00
1O
1S
0P
0L
1?
1-
1V
0Q
#27000
0#
0A
0B
10
#27500
1#
1A
1B
00
1W
0R
0O
0T
1L
1=
0>
0?
1+
0,
0-
#28000
0#
0A
0B
10
#28500
1#
1A
1B
00
1O
1T
1P
0L
1?
1-
1Q
#29000
0#
0A
0B
10
#29500
1#
1A
1B
00
1R
0O
1L
1>
0?
1,
0-
#30000
0#
0A
0B
10
#30500
1#
1A
1B
00
1O
1X
0S
0P
0L
1?
1-
1f
0c
0^
0V
0Q
1i
0d
#31000
0#
0A
0B
10
#31500
1#
1A
1B
00
1j
0e
0_
0W
0R
0O
1^
0X
0T
1L
1:
0;
0<
0=
0>
0?
1(
0)
0*
0+
0,
0-
0^
#32000
0#
0A
0B
10
#32500
1#
1A
1B
00
1O
1T
1P
0L
1?
1-
1Q
#33000
0#
0A
0B
10
#33500
1#
1A
1B
00
1R
0O
1L
1>
0?
1,
0-
#34000
0#
0A
0B
10
#34500
1#
1A
1B
00
1O
1S
0P
0L
1?
1-
1V
0Q
#35000
0#
0A
0B
10
#35500
1#
1A
1B
00
1W
0R
0O
0T
1L
1=
0>
0?
1+
0,
0-
#36000
0#
0A
0B
10
#36500
1#
1A
1B
00
1O
1T
1P
0L
1?
1-
1Q
#37000
0#
0A
0B
10
#37500
1#
1A
1B
00
1R
0O
1L
1>
0?
1,
0-
#38000
0#
0A
0B
10
#38500
1#
1A
1B
00
1O
1X
0S
0P
0L
1?
1-
1^
0V
0Q
#39000
0#
0A
0B
10
#39500
1#
1A
1B
00
1_
0W
0R
0O
1c
0^
0X
0T
1L
1<
0=
0>
0?
1*
0+
0,
0-
1d
0c
1^
0d
#40000
0#
0A
0B
10
#40500
1#
1A
1B
00
1O
1T
1P
0L
1?
1-
1Q
#41000
0#
0A
0B
10
#41500
1#
1A
1B
00
1R
0O
1L
1>
0?
1,
0-
#42000
0#
0A
0B
10
#42500
1#
1A
1B
00
1O
1S
0P
0L
1?
1-
1V
0Q
#43000
0#
0A
0B
10
#43500
1#
1A
1B
00
1W
0R
0O
0T
1L
1=
0>
0?
1+
0,
0-
#44000
0#
0A
0B
10
#44500
1#
1A
1B
00
1O
1T
1P
0L
1?
1-
1Q
#45000
0#
0A
0B
10
#45500
1#
1A
1B
00
1R
0O
1L
1>
0?
1,
0-
#46000
0#
0A
0B
10
#46500
1#
1A
1B
00
1O
1X
0S
0P
0L
1?
1-
1c
0^
0V
0Q
1d
#47000
0#
0A
0B
10
#47500
1#
1A
1B
00
1e
0_
0W
0R
0O
1t
1^
0X
0T
1L
1;
0<
0=
0>
0?
1)
0*
0+
0,
0-
0^
#48000
0#
0A
0B
10
#48500
1#
1A
1B
00
1O
1T
1P
0L
1?
1-
1Q
#49000
0#
0A
0B
10
#49500
1#
1A
1B
00
1R
0O
1L
1>
0?
1,
0-
#50000
0#
0A
0B
10
#50500
1#
1A
1B
00
1O
1S
0P
0L
1?
1-
1V
0Q
#51000
0#
0A
0B
10
#51500
1#
1A
1B
00
1W
0R
0O
0T
1L
1=
0>
0?
1+
0,
0-
#52000
0#
0A
0B
10
#52500
1#
1A
1B
00
1O
1T
1P
0L
1?
1-
1Q
#53000
0#
0A
0B
10
#53500
1#
1A
1B
00
1R
0O
1L
1>
0?
1,
0-
#54000
0#
0A
0B
10
#54500
1#
1A
1B
00
1O
1X
0S
0P
0L
1?
1-
1^
0V
0Q
#55000
0#
0A
0B
10
#55500
1#
1A
1B
00
1_
0W
0R
0O
1l
0f
0c
0^
0X
0T
1L
1<
0=
0>
0?
1*
0+
0,
0-
1m
0i
0d
0l
1f
1c
1^
1o
0m
1i
1d
0o
#56000
0#
0A
0B
10
#56500
1#
1A
1B
00
1O
1T
1P
0L
1?
1-
1Q
#57000
0#
0A
0B
10
#57500
1#
1A
1B
00
1R
0O
1L
1>
0?
1,
0-
#58000
0#
0A
0B
10
#58500
1#
1A
1B
00
1O
1S
0P
0L
1?
1-
1V
0Q
#59000
0#
0A
0B
10
#59500
1#
1A
1B
00
1W
0R
0O
0T
1L
1=
0>
0?
1+
0,
0-
#60000
0#
0A
0B
10
#60500
1#
1A
1B
00
1O
1T
1P
0L
1?
1-
1Q
#61000
0#
0A
0B
10
#61500
1#
1A
1B
00
1R
0O
1L
1>
0?
1,
0-
#62000
0#
0A
0B
10
#62500
1#
1A
1B
00
1O
1X
0S
0P
0L
1?
1-
1l
0f
0c
0^
0V
0Q
1m
0i
0d
1o
#63000
0#
0A
0B
10
#63500
1#
1A
1B
00
1p
0j
0e
0_
0W
0R
0O
0m
0t
0l
1^
0X
0T
1L
19
0:
0;
0<
0=
0>
0?
1'
0(
0)
0*
0+
0,
0-
0o
1m
0^
1o
#64000
0#
0A
0B
10
#64500
1#
1A
1B
00
1O
1T
1P
0L
1?
1-
1Q
#65000
0#
0A
0B
10
#65500
1#
1A
1B
00
1R
0O
1L
1>
0?
1,
0-
#66000
0#
0A
0B
10
#66500
1#
1A
1B
00
1O
1S
0P
0L
1?
1-
1V
0Q
#67000
0#
0A
0B
10
#67500
1#
1A
1B
00
1W
0R
0O
0T
1L
1=
0>
0?
1+
0,
0-
#68000
0#
0A
0B
10
#68500
1#
1A
1B
00
1O
1T
1P
0L
1?
1-
1Q
#69000
0#
0A
0B
10
#69500
1#
1A
1B
00
1R
0O
1L
1>
0?
1,
0-
#70000
0#
0A
0B
10
#70500
1#
1A
1B
00
1O
1X
0S
0P
0L
1?
1-
1^
0V
0Q
#71000
0#
0A
0B
10
#71500
1#
1A
1B
00
1_
0W
0R
0O
1c
0^
0X
0T
1L
1<
0=
0>
0?
1*
0+
0,
0-
1d
0c
1^
0d
#72000
0#
0A
0B
10
#72500
1#
1A
1B
00
1O
1T
1P
0L
1?
1-
1Q
#73000
0#
0A
0B
10
#73500
1#
1A
1B
00
1R
0O
1L
1>
0?
1,
0-
#74000
0#
0A
0B
10
#74500
1#
1A
1B
00
1O
1S
0P
0L
1?
1-
1V
0Q
#75000
0#
0A
0B
10
#75500
1#
1A
1B
00
1W
0R
0O
0T
1L
1=
0>
0?
1+
0,
0-
#76000
0#
0A
0B
10
#76500
1#
1A
1B
00
1O
1T
1P
0L
1?
1-
1Q
#77000
0#
0A
0B
10
#77500
1#
1A
1B
00
1R
0O
1L
1>
0?
1,
0-
#78000
0#
0A
0B
10
#78500
1#
1A
1B
00
1O
1X
0S
0P
0L
1?
1-
1c
0^
0V
0Q
1d
#79000
0#
0A
0B
10
#79500
1#
1A
1B
00
1e
0_
0W
0R
0O
1^
0X
0T
1L
1;
0<
0=
0>
0?
1)
0*
0+
0,
0-
0^
#80000
0#
0A
0B
10
#80500
1#
1A
1B
00
1O
1T
1P
0L
1?
1-
1Q
#81000
0#
0A
0B
10
#81500
1#
1A
1B
00
1R
0O
1L
1>
0?
1,
0-
#82000
0#
0A
0B
10
#82500
1#
1A
1B
00
1O
1S
0P
0L
1?
1-
1V
0Q
#83000
0#
0A
0B
10
#83500
1#
1A
1B
00
1W
0R
0O
0T
1L
1=
0>
0?
1+
0,
0-
#84000
0#
0A
0B
10
#84500
1#
1A
1B
00
1O
1T
1P
0L
1?
1-
1Q
#85000
0#
0A
0B
10
#85500
1#
1A
1B
00
1R
0O
1L
1>
0?
1,
0-
#86000
0#
0A
0B
10
#86500
1#
1A
1B
00
1O
1X
0S
0P
0L
1?
1-
1^
0V
0Q
#87000
0#
0A
0B
10
#87500
1#
1A
1B
00
1_
0W
0R
0O
1f
0c
0^
0X
0T
1L
1<
0=
0>
0?
1*
0+
0,
0-
1i
0d
0f
1c
1^
0i
1d
#88000
0#
0A
0B
10
#88500
1#
1A
1B
00
1O
1T
1P
0L
1?
1-
1Q
#89000
0#
0A
0B
10
#89500
1#
1A
1B
00
1R
0O
1L
1>
0?
1,
0-
#90000
0#
0A
0B
10
#90500
1#
1A
1B
00
1O
1S
0P
0L
1?
1-
1V
0Q
#91000
0#
0A
0B
10
#91500
1#
1A
1B
00
1W
0R
0O
0T
1L
1=
0>
0?
1+
0,
0-
#92000
0#
0A
0B
10
#92500
1#
1A
1B
00
1O
1T
1P
0L
1?
1-
1Q
#93000
0#
0A
0B
10
#93500
1#
1A
1B
00
1R
0O
1L
1>
0?
1,
0-
#94000
0#
0A
0B
10
#94500
1#
1A
1B
00
1O
1X
0S
0P
0L
1?
1-
1f
0c
0^
0V
0Q
1i
0d
#95000
0#
0A
0B
10
#95500
1#
1A
1B
00
1j
0e
0_
0W
0R
0O
1^
0X
0T
1L
1:
0;
0<
0=
0>
0?
1(
0)
0*
0+
0,
0-
0^
#96000
0#
0A
0B
10
#96500
1#
1A
1B
00
1O
1T
1P
0L
1?
1-
1Q
#97000
0#
0A
0B
10
#97500
1#
1A
1B
00
1R
0O
1L
1>
0?
1,
0-
#98000
0#
0A
0B
10
#98500
1#
1A
1B
00
1O
1S
0P
0L
1?
1-
1V
0Q
#99000
0#
0A
0B
10
#99500
1#
1A
1B
00
1W
0R
0O
0T
1L
1=
0>
0?
1+
0,
0-
#100000
0#
0A
0B
10
#100500
1#
1A
1B
00
1O
1T
1P
0L
1?
1-
1Q
#101000
0#
0A
0B
10
#101500
1#
1A
1B
00
1R
0O
1L
1>
0?
1,
0-
#102000
0#
0A
0B
10
#102500
1#
1A
1B
00
1O
1X
0S
0P
0L
1?
1-
1^
0V
0Q
#103000
0#
0A
0B
10
#103500
1#
1A
1B
00
1_
0W
0R
0O
1c
0^
0X
0T
1L
1<
0=
0>
0?
1*
0+
0,
0-
1d
0c
1^
0d
#104000
0#
0A
0B
10
#104500
1#
1A
1B
00
1O
1T
1P
0L
1?
1-
1Q
#105000
0#
0A
0B
10
#105500
1#
1A
1B
00
1R
0O
1L
1>
0?
1,
0-
#106000
0#
0A
0B
10
#106500
1#
1A
1B
00
1O
1S
0P
0L
1?
1-
1V
0Q
#107000
0#
0A
0B
10
#107500
1#
1A
1B
00
1W
0R
0O
0T
1L
1=
0>
0?
1+
0,
0-
#108000
0#
0A
0B
10
#108500
1#
1A
1B
00
1O
1T
1P
0L
1?
1-
1Q
#109000
0#
0A
0B
10
#109500
1#
1A
1B
00
1R
0O
1L
1>
0?
1,
0-
#110000
0#
0A
0B
10
#110500
1#
1A
1B
00
1O
1X
0S
0P
0L
1?
1-
1c
0^
0V
0Q
1d
#111000
0#
0A
0B
10
#111500
1#
1A
1B
00
1e
0_
0W
0R
0O
1t
1^
0X
0T
1L
1;
0<
0=
0>
0?
1)
0*
0+
0,
0-
0^
#112000
0#
0A
0B
10
#112500
1#
1A
1B
00
1O
1T
1P
0L
1?
1-
1Q
#113000
0#
0A
0B
10
#113500
1#
1A
1B
00
1R
0O
1L
1>
0?
1,
0-
#114000
0#
0A
0B
10
#114500
1#
1A
1B
00
1O
1S
0P
0L
1?
1-
1V
0Q
#115000
0#
0A
0B
10
#115500
1#
1A
1B
00
1W
0R
0O
0T
1L
1=
0>
0?
1+
0,
0-
#116000
0#
0A
0B
10
#116500
1#
1A
1B
00
1O
1T
1P
0L
1?
1-
1Q
#117000
0#
0A
0B
10
#117500
1#
1A
1B
00
1R
0O
1L
1>
0?
1,
0-
#118000
0#
0A
0B
10
#118500
1#
1A
1B
00
1O
1X
0S
0P
0L
1?
1-
1^
0V
0Q
#119000
0#
0A
0B
10
#119500
1#
1A
1B
00
1_
0W
0R
0O
1l
0f
0c
0^
0X
0T
1L
1<
0=
0>
0?
1*
0+
0,
0-
1u
0m
0i
0d
0l
1f
1c
1^
1v
1@
1.
0u
0o
1m
1i
1d
1w
0v
0@
0.
1o
0w
#120000
0#
0A
0B
10
#120500
1#
1A
1B
00
1O
1T
1P
0L
1?
1-
1Q
#121000
0#
0A
0B
10
#121500
1#
1A
1B
00
1R
0O
1L
1>
0?
1,
0-
#122000
0#
0A
0B
10
#122500
1#
1A
1B
00
1O
1S
0P
0L
1?
1-
1V
0Q
#123000
0#
0A
0B
10
#123500
1#
1A
1B
00
1W
0R
0O
0T
1L
1=
0>
0?
1+
0,
0-
#124000
0#
0A
0B
10
#124500
1#
1A
1B
00
1O
1T
1P
0L
1?
1-
1Q
#125000
0#
0A
0B
10
#125500
1#
1A
1B
00
1R
0O
1L
1>
0?
1,
0-
#126000
0#
0A
0B
10
#126500
1#
1A
1B
00
1O
1X
0S
0P
0L
1?
1-
1l
0f
0c
0^
0V
0Q
1u
0m
0i
0d
1v
1@
1.
0o
1w
#127000
0#
0A
0B
10
#127500
1#
1A
1B
00
1x
0p
0j
0e
0_
0W
0R
0O
0v
1m
0t
0l
1^
0X
0T
1L
18
09
0:
0;
0<
0=
0>
0?
1&
0'
0(
0)
0*
0+
0,
0-
0u
0w
1o
0m
0^
1v
0@
0.
0o
1w
#128000
0#
0A
0B
10
#128500
1#
1A
1B
00
1O
1T
1P
0L
1?
1-
1Q
#129000
0#
0A
0B
10
#129500
1#
1A
1B
00
1R
0O
1L
1>
0?
1,
0-
#130000
0#
0A
0B
10
#130500
1#
1A
1B
00
1O
1S
0P
0L
1?
1-
1V
0Q
#131000
0#
0A
0B
10
#131500
1#
1A
1B
00
1W
0R
0O
0T
1L
1=
0>
0?
1+
0,
0-
#132000
0#
0A
0B
10
#132500
1#
1A
1B
00
1O
1T
1P
0L
1?
1-
1Q
#133000
0#
0A
0B
10
#133500
1#
1A
1B
00
1R
0O
1L
1>
0?
1,
0-
#134000
0#
0A
0B
10
#134500
1#
1A
1B
00
1O
1X
0S
0P
0L
1?
1-
1^
0V
0Q
#135000
0#
0A
0B
10
#135500
1#
1A
1B
00
1_
0W
0R
0O
1c
0^
0X
0T
1L
1<
0=
0>
0?
1*
0+
0,
0-
1d
0c
1^
0d
#136000
0#
0A
0B
10
#136500
1#
1A
1B
00
1O
1T
1P
0L
1?
1-
1Q
#137000
0#
0A
0B
10
#137500
1#
1A
1B
00
1R
0O
1L
1>
0?
1,
0-
#138000
0#
0A
0B
10
#138500
1#
1A
1B
00
1O
1S
0P
0L
1?
1-
1V
0Q
#139000
0#
0A
0B
10
#139500
1#
1A
1B
00
1W
0R
0O
0T
1L
1=
0>
0?
1+
0,
0-
#140000
0#
0A
0B
10
#140500
1#
1A
1B
00
1O
1T
1P
0L
1?
1-
1Q
#141000
0#
0A
0B
10
#141500
1#
1A
1B
00
1R
0O
1L
1>
0?
1,
0-
#142000
0#
0A
0B
10
#142500
1#
1A
1B
00
1O
1X
0S
0P
0L
1?
1-
1c
0^
0V
0Q
1d
#143000
0#
0A
0B
10
#143500
1#
1A
1B
00
1e
0_
0W
0R
0O
1^
0X
0T
1L
1;
0<
0=
0>
0?
1)
0*
0+
0,
0-
0^
#144000
0#
0A
0B
10
#144500
1#
1A
1B
00
1O
1T
1P
0L
1?
1-
1Q
#145000
0#
0A
0B
10
#145500
1#
1A
1B
00
1R
0O
1L
1>
0?
1,
0-
#146000
0#
0A
0B
10
#146500
1#
1A
1B
00
1O
1S
0P
0L
1?
1-
1V
0Q
#147000
0#
0A
0B
10
#147500
1#
1A
1B
00
1W
0R
0O
0T
1L
1=
0>
0?
1+
0,
0-
#148000
0#
0A
0B
10
#148500
1#
1A
1B
00
1O
1T
1P
0L
1?
1-
1Q
#149000
0#
0A
0B
10
#149500
1#
1A
1B
00
1R
0O
1L
1>
0?
1,
0-
#150000
0#
0A
0B
10
#150500
1#
1A
1B
00
1O
1X
0S
0P
0L
1?
1-
1^
0V
0Q
#151000
0#
0A
0B
10
#151500
1#
1A
1B
00
1_
0W
0R
0O
1f
0c
0^
0X
0T
1L
1<
0=
0>
0?
1*
0+
0,
0-
1i
0d
0f
1c
1^
0i
1d
#152000
0#
0A
0B
10
#152500
1#
1A
1B
00
1O
1T
1P
0L
1?
1-
1Q
#153000
0#
0A
0B
10
#153500
1#
1A
1B
00
1R
0O
1L
1>
0?
1,
0-
#154000
0#
0A
0B
10
#154500
1#
1A
1B
00
1O
1S
0P
0L
1?
1-
1V
0Q
#155000
0#
0A
0B
10
#155500
1#
1A
1B
00
1W
0R
0O
0T
1L
1=
0>
0?
1+
0,
0-
#156000
0#
0A
0B
10
#156500
1#
1A
1B
00
1O
1T
1P
0L
1?
1-
1Q
#157000
0#
0A
0B
10
#157500
1#
1A
1B
00
1R
0O
1L
1>
0?
1,
0-
#158000
0#
0A
0B
10
#158500
1#
1A
1B
00
1O
1X
0S
0P
0L
1?
1-
1f
0c
0^
0V
0Q
1i
0d
#159000
0#
0A
0B
10
#159500
1#
1A
1B
00
1j
0e
0_
0W
0R
0O
1^
0X
0T
1L
1:
0;
0<
0=
0>
0?
1(
0)
0*
0+
0,
0-
0^
#160000
0#
0A
0B
10
#160500
1#
1A
1B
00
1O
1T
1P
0L
1?
1-
1Q
#161000
0#
0A
0B
10
#161500
1#
1A
1B
00
1R
0O
1L
1>
0?
1,
0-
#162000
0#
0A
0B
10
#162500
1#
1A
1B
00
1O
1S
0P
0L
1?
1-
1V
0Q
#163000
0#
0A
0B
10
#163500
1#
1A
1B
00
1W
0R
0O
0T
1L
1=
0>
0?
1+
0,
0-
#164000
0#
0A
0B
10
#164500
1#
1A
1B
00
1O
1T
1P
0L
1?
1-
1Q
#165000
0#
0A
0B
10
#165500
1#
1A
1B
00
1R
0O
1L
1>
0?
1,
0-
#166000
0#
0A
0B
10
#166500
1#
1A
1B
00
1O
1X
0S
0P
0L
1?
1-
1^
0V
0Q
#167000
0#
0A
0B
10
#167500
1#
1A
1B
00
1_
0W
0R
0O
1c
0^
0X
0T
1L
1<
0=
0>
0?
1*
0+
0,
0-
1d
0c
1^
0d
#168000
0#
0A
0B
10
#168500
1#
1A
1B
00
1O
1T
1P
0L
1?
1-
1Q
#169000
0#
0A
0B
10
#169500
1#
1A
1B
00
1R
0O
1L
1>
0?
1,
0-
#170000
0#
0A
0B
10
#170500
1#
1A
1B
00
1O
1S
0P
0L
1?
1-
1V
0Q
#171000
0#
0A
0B
10
#171500
1#
1A
1B
00
1W
0R
0O
0T
1L
1=
0>
0?
1+
0,
0-
#172000
0#
0A
0B
10
#172500
1#
1A
1B
00
1O
1T
1P
0L
1?
1-
1Q
#173000
0#
0A
0B
10
#173500
1#
1A
1B
00
1R
0O
1L
1>
0?
1,
0-
#174000
0#
0A
0B
10
#174500
1#
1A
1B
00
1O
1X
0S
0P
0L
1?
1-
1c
0^
0V
0Q
1d
#175000
0#
0A
0B
10
#175500
1#
1A
1B
00
1e
0_
0W
0R
0O
1t
1^
0X
0T
1L
1;
0<
0=
0>
0?
1)
0*
0+
0,
0-
0^
#176000
0#
0A
0B
10
#176500
1#
1A
1B
00
1O
1T
1P
0L
1?
1-
1Q
#177000
0#
0A
0B
10
#177500
1#
1A
1B
00
1R
0O
1L
1>
0?
1,
0-
#178000
0#
0A
0B
10
#178500
1#
1A
1B
00
1O
1S
0P
0L
1?
1-
1V
0Q
#179000
0#
0A
0B
10
#179500
1#
1A
1B
00
1W
0R
0O
0T
1L
1=
0>
0?
1+
0,
0-
#180000
0#
0A
0B
10
#180500
1#
1A
1B
00
1O
1T
1P
0L
1?
1-
1Q
#181000
0#
0A
0B
10
#181500
1#
1A
1B
00
1R
0O
1L
1>
0?
1,
0-
#182000
0#
0A
0B
10
#182500
1#
1A
1B
00
1O
1X
0S
0P
0L
1?
1-
1^
0V
0Q
#183000
0#
0A
0B
10
#183500
1#
1A
1B
00
1_
0W
0R
0O
1l
0f
0c
0^
0X
0T
1L
1<
0=
0>
0?
1*
0+
0,
0-
1m
0i
0d
0l
1f
1c
1^
1o
0m
1i
1d
0o
#184000
0#
0A
0B
10
#184500
1#
1A
1B
00
1O
1T
1P
0L
1?
1-
1Q
#185000
0#
0A
0B
10
#185500
1#
1A
1B
00
1R
0O
1L
1>
0?
1,
0-
#186000
0#
0A
0B
10
#186500
1#
1A
1B
00
1O
1S
0P
0L
1?
1-
1V
0Q
#187000
0#
0A
0B
10
#187500
1#
1A
1B
00
1W
0R
0O
0T
1L
1=
0>
0?
1+
0,
0-
#188000
0#
0A
0B
10
#188500
1#
1A
1B
00
1O
1T
1P
0L
1?
1-
1Q
#189000
0#
0A
0B
10
#189500
1#
1A
1B
00
1R
0O
1L
1>
0?
1,
0-
#190000
0#
0A
0B
10
#190500
1#
1A
1B
00
1O
1X
0S
0P
0L
1?
1-
1l
0f
0c
0^
0V
0Q
1m
0i
0d
1o
#191000
0#
0A
0B
10
#191500
1#
1A
1B
00
1p
0j
0e
0_
0W
0R
0O
0m
0t
0l
1^
0X
0T
1L
19
0:
0;
0<
0=
0>
0?
1'
0(
0)
0*
0+
0,
0-
0o
1m
0^
1o
#192000
0#
0A
0B
10
#192500
1#
1A
1B
00
1O
1T
1P
0L
1?
1-
1Q
#193000
0#
0A
0B
10
#193500
1#
1A
1B
00
1R
0O
1L
1>
0?
1,
0-
#194000
0#
0A
0B
10
#194500
1#
1A
1B
00
1O
1S
0P
0L
1?
1-
1V
0Q
#195000
0#
0A
0B
10
#195500
1#
1A
1B
00
1W
0R
0O
0T
1L
1=
0>
0?
1+
0,
0-
#196000
0#
0A
0B
10
#196500
1#
1A
1B
00
1O
1T
1P
0L
1?
1-
1Q
#197000
0#
0A
0B
10
#197500
1#
1A
1B
00
1R
0O
1L
1>
0?
1,
0-
#198000
0#
0A
0B
10
#198500
1#
1A
1B
00
1O
1X
0S
0P
0L
1?
1-
1^
0V
0Q
#199000
0#
0A
0B
10
#199500
1#
1A
1B
00
1_
0W
0R
0O
1c
0^
0X
0T
1L
1<
0=
0>
0?
1*
0+
0,
0-
1d
0c
1^
0d
#200000
0#
0A
0B
10
#200500
1#
1A
1B
00
1O
1T
1P
0L
1?
1-
1Q
#201000
0#
0A
0B
10
#201500
1#
1A
1B
00
1R
0O
1L
1>
0?
1,
0-
#202000
0#
0A
0B
10
#202500
1#
1A
1B
00
1O
1S
0P
0L
1?
1-
1V
0Q
#203000
0#
0A
0B
10
#203500
1#
1A
1B
00
1W
0R
0O
0T
1L
1=
0>
0?
1+
0,
0-
#204000
0#
0A
0B
10
#204500
1#
1A
1B
00
1O
1T
1P
0L
1?
1-
1Q
#205000
0#
0A
0B
10
#205500
1#
1A
1B
00
1R
0O
1L
1>
0?
1,
0-
#206000
0#
0A
0B
10
